PATH: ./data/NR/NR10_inst.dat
354
37
2046
2019
1724
1431
1840
1346
87
1690
265
127
941
1420
142
36
1991
683
909
2042
47
481
686
1494
1910
1681
121
21
1990
1976
2040
113
2027
1814
1490
101
1207
285
2034
559
97
518
1458
1252
713
1832
1928
167
107
1953
143
2043
247
42
439
1824
964
2043
1356
2023
1
213
1614
1927
2024
1139
711
35
44
748
1755
1941
659
938
1316
139
1765
1410
140
1916
2034
408
1853
609
1816
2039
1619
1769
262
37
1884
1917
162
2020
1662
160
415
1791
2042
603
218
1836
14
496
378
1247
92
1819
401
151
1203
1946
2041
511
52
1717
210
651
2045
1759
552
215
700
1914
1736
2038
754
2008
1977
847
2022
1108
31
797
2006
38
485
21
1182
1963
334
1956
150
1759
872
76
2040
642
2014
658
91
130
1479
395
1513
562
1780
822
1691
1883
1726
1915
253
224
2044
220
109
2026
1602
1876
1613
1823
14
210
1283
658
603
1736
937
2038
690
1942
1090
1834
1602
1002
745
1332
2026
62
64
2025
1991
2044
1959
111
2029
1846
2035
482
1954
21
1433
63
662
1492
2046
127
1972
1005
11
54
1907
1591
1601
1865
1739
202
24
12
373
2029
21
1928
873
2046
17
37
1746
1128
1668
619
1340
20
150
2034
1587
211
79
1984
1048
1971
1818
416
49
1876
1339
37
1455
54
53
185
112
312
2006
2043
1994
852
1383
388
24
812
1729
283
1927
2044
279
35
448
211
315
325
468
1775
1980
2016
1999
352
2042
18
2028
2045
894
1728
1685
52
39
1602
2039
1732
1687
141
476
2043
1925
2003
158
1577
1733
2013
641
11
957
19
194
2000
925
1695
350
25
2041
2037
568
2039
1526
1964
87
1892
1904
201
436
1791
443
1566
773
1919
1833
1928
510
2031
1021
473
128
11
921
2023
1568
2043
2041
1558
903
612
2044
353
597
592
542
613
1095
1173
94
1664
2014
2039
14
1118
912
1191
36
58
2033
1763
2044
1982
38
760
2032
2039
2024
935
1816
1295
1779
1880
2010
1209
34
447
2037
810
1657
997
1471
1997
1811
1998
94
269
1843
11
592
2033
1190
776
2039
306
1636
654
1963
1792
1422
57
1998
2034
2045
1151
1959
355
308
1982
1975
528
1666
2022
1620
1203
11
1802
144
1743
71
1144
11
85
1357
999
150
1723
775
1764
238
1887
1613
1911
2043
1799
35
831
188
1116
2046
1962
1269
1927
365
1622
2033
1986
1379
840
141
152
25
1920
590
1268
982
1760
1410
1827
1915
1563
1513
1251
723
638
392
426
29
490
1857
724
1513
265
2037
558
1805
661
398
1997
454
2002
11
904
506
2008
1556
391
287
245
2045
210
530
1863
2035
1055
2043
1642
19
34

PATH: ./data/NR/NR15_inst.dat
42611
53101
46397
940
65532
208
64310
65385
65517
65478
3083
20043
64870
58025
45
43648
603
43410
65108
62219
65465
8511
38810
40176
31930
20840
4885
62847
63939
62547
55850
4698
16
18049
32685
954
35975
277
7749
51031
65015
3815
65520
10421
10500
65529
65524
501
48964
45916
63911
37740
31169
10739
57541
37281
48994
99
22
13447
64500
65522
2801
40895
35168
369
20086
37980
7291
50825
9301
54386
26947
2812
718
60983
200
65471
65481
4595
62429
65515
65280
64195
503
328
6412
65486
64331
4164
775
65517
1470
28256
59836
37329
4019
7531
53847
56886
62010
65515
18246
56643
48661
3226
85
65531
8868
47727
64022
63441
55242
65505
65531
46737
30904
63889
3937
57150
63502
16
152
64946
63417
26738
65513
54544
35647
44852
1394
13329
42776
63
48052
65345
121
63632
13426
409
1612
17159
252
15387
31701
56689
57720
65487
15066
64908
33
13695
9242
24203
224
62011
65092
7224
2675
63932
22167
6621
2375
5647
63788
7634
64121
66
61320
23316
433
65506
63701
56771
57955
54710
1302
63884
2026
50126
2941
38110
646
48627
14999
63189
8222
64806
65516
65528
44720
8762
48398
65508
57615
36713
2084
361
59701
65286
2760
4068
65497
65023
44847
50582
15683
39199
3839
127
16485
16271
22221
64750
31058
62438
6511
2472
55112
62251
65520
62196
12799
116
65441
65447
64804
17713
65347
66
28719
54710
62997
59454
20898
64991
41
65128
19
18398
209
57
28096
11569
65532
58832
16756
65482
64552
65077
65498
37129
63677
2877
47122
53347
30842
65528
9918
1193
65223
59
42056
2529
26794
65533
2543
2349
54734
65531
65411
65460
64979
147
30106
65492
65368
60874
4843
64939
65493
42848
31932
54173
1644
65295
47061
64874
61021
64128
88
63738
59992
62477
65358
2091
1693
65534
65528
1889
10580
141
16
37620
65482
65508
937
65502
46008
8010
62395
30245
3331
63461
21617
101
23434
60947
4565
5451
54937
65516
15676
38833
28227
36606
57472
65531
23092
847
52524
19985
65117
13717
65333
34916
57690
65505
16856
4166
402
58919
65476
62047
3948
64688
60839
58894
36977
65505
57488
45664
27452
48918
31086
65413
54
1287
62717
65521
64402
57677
63894
253
65506
5392
517
28953
65253
5868
414
19214
319
16970
64861
64548
273
47757
65529
57421
41059
62021
65009
65462
1258
23206
65485
134
24219
18693
4953
65504
65533
19023
26249
16273
705
2153
65203
42062
61037
65529
50
160
31552
65143
65168
18137
6029
65520
4550
65449
65507
15780
41049
62215
12670
31024
5399
46455
65506
13122
1530
65531
6858
9073
54379
6689
16592
23770
65126
52290
196
63571
10863
21315
65526
65269
37002
35171
64823
46222
65521
2738
63769
1444
1345
42451
59
65533
52075
10266
50453
818
6094
38689
65408
22768
27298
48204
1977
65510
48
65533
40795
7639
24
65
5514
42997
60596
65533
15438
65515
57163
59493
10389
5692
28697
45465
168
21545
6155
40006
30767
34
46582
19639
31
57828
52013
1252
40301
6270
65531
39156
65376
4931
13586
65531

PATH: ./data/NR/NR20_inst.dat
1378181
324581
2060982
1197215
140315
1853279
2097144
1524791
7648
2097149
1598194
2095129
13547
729446
2097052
2613
1543346
2097114
2096523
2088709
13419
2005145
2066120
1679895
2095438
2096982
2093034
5036
1007214
379
2092616
1795871
1831558
2030722
1326740
959249
2096959
2096582
98315
12434
2067353
192626
900764
2080703
308998
1162767
2096926
2097102
725075
2077130
3272
129973
2095538
621854
1903786
2097147
229801
2022995
2096405
2091590
2079878
2097008
459046
760698
375271
387695
2097150
2080911
1481444
179
2095277
1518484
2078301
2085812
194
2093728
2088638
8697
2095099
2096482
2055251
397
185
48183
2093341
1714312
665
2090509
46625
2096242
1700345
169495
727
13895
2097125
630154
2089955
1898926
1807850
11940
28375
251099
2096669
2096845
542701
1930834
1437
1815310
61731
2048321
5933
3778
1665983
279765
530822
2096169
8803
227
178
2097125
4414
1752331
1285362
105262
154158
2040506
1937008
314380
2051413
41694
2025093
43479
2097150
1442536
2095388
438437
1774687
2095230
2096659
16935
821
11684
2094285
12876
2088634
1110481
1115
2069491
2096362
682634
1969888
63
6808
2081886
1524446
2953
2097121
496782
2097052
1366836
5719
2077589
1907992
4210
12035
257653
475814
2074061
3313
304398
2096810
2029280
2097140
305522
2091224
329054
4540
63
133519
1504
128617
1746957
56648
2096858
1652562
1866058
93040
1194347
2096086
843732
640
1955500
591160
1006022
1323780
2096947
2088581
329179
475139
378239
1093824
2309
16082
207
1831
2096999
2097111
41622
2041614
2077861
1464038
1949693
2097148
1404406
2035143
590403
1568973
19902
1105032
2084822
6372
2096974
115337
358311
2092939
13392
4559
1986418
719885
1998726
15163
2097143
2028937
2033903
5651
2067751
2092332
1849842
1527092
2096958
224876
27
944400
502840
1138137
1432133
2096993
2097142
26604
110061
204623
47508
2094459
19369
551491
196110
2096360
302072
1629340
1280229
9040
1249
19213
2096769
25993
11774
2097126
39114
2058644
1908405
91513
1316722
40
2097145
2051359
613388
2097067
2096845
2093678
2097130
1894608
59769
1810500
493921
2085730
867373
1387122
17363
725372
1940655
2096881
194464
2096774
521792
2079782
30242
2072815
1455576
2097146
1961891
2014875
1171485
2090757
29467
1822148
1921418
2097079
1031622
749414
2097118
1693464
286797
1217369
17270
2096660
596
32
2034522
2096531
431975
2092327
5971
1989564
894742
2083501
2097147
2057767
2097139
1824969
1306374
2077572
2097090
87
2097148
220249
5719
1619955
379408
1414921
2076358
1775890
41565
2092938
36457
2081561
166070
2072708
1734056
1927695
349808
26
131439
1844152
2088226
43101
976853
2092464
21213
2036858
2090614
2096126
2006388
1856067
1951046
84506
2058843
1781112
2087899
2092532
122
1427414
16739
249393
1374537
1981779
1517882
2097107
5184
2074799
1482
436367
2020750
62234
2097082
2093183
104
2096527
513019
42
2096603
674613
2093495
20010
2015096
2067253
2097060
2095652
407553
2028681
2055817
2076352
3501
138777
2097141
1316857
1212799
2097122
45022
2097125
2096997
72883
1485361
200196
2050951
2095948
1413640
1844280
2097147
657789
2097087
629345
504831
151481
1992002
1986731
6154
366389
1272099
1846688
2095380
1717
2097027
577643
1590853
357096
950438
880996
716544
2091458
1375799
1607822
2053927
2097132
957587
14202
1943506
1850750
1555050
1928328
1661803
459527
62730
1195912
1084761
1923961
770509
22
351397
2097125
1068836
2091813
2097137
2093363
1484551
22650
1097529
2090480
1858597
2096766
7244
765471
1459663
966622
138732
27964
1664339
30
2062163
2094669
2094897
1411058
1956539
2022
2097050
2074937
2057248
37498
1430504
121955
97364
1933520
2097140
1010987
21
85160
213
431
2097138
2096861
478117

PATH: ./data/NR/NR4_inst.dat
8
22
5
6
20
7
30
12
25
6
23
9
24
21
24
19
5
11
24
28
6
9
30
25
26
15
19
9
20
29
30
30
11
16
8
10
5
15
27
18
6
16
9
30
26
9
25
16
5
11
5
26
17
12
29
21
23
8
24
21
5
22
13
29
27
15
22
29
5
29
11
25
18
5
25
17
29
24
23
9
23
30
5
7
24
13
12
6
15
24
29
28
9
22
30
27
9
15
23
9
29
15
9
21
15
20
16
21
16
8
27
12
22
29
27
14
15
5
13
18
30
18
26
6
25
5
16
8
17
30
14
27
17
20
30
21
26
15
8
28
25
28
29
5
5
21
25
17
10
28
30
9
13
20
9
28
18
25
13
21
6
5
27
22
9
7
14
27
28
16
9
24
27
9
23
18
5
20
21
26
28
16
5
30
30
13
21
12
30
30
25
20
27
9
26
14
28
23
16
22
5
7
26
5
12
23
5
15
23
9
24
5
15
17
5
5
8
8
12
18
11
13
28
7
20
6
6
28
7
19
29
29
24
30
29
7
6
26
14
8
29
30
17
8
12
18
17
23
15
18
5
26
12
9
5
29
29
16
20
15
28
25
23
24
20
13
22
25
30
20
30
13
12
24
23
16
28
8
24
24
9
11
15
5
28
27
16
17
29
19
9
30
23
30
21
25
21
27
19
5
29
11
12
27
25
6
12
18
28
9
17
17
11
28
25
6
27
7
11
25
14
5
30
30
18
27
11
21
14
27
15
25
18
11
24
22
13
30
24
15
23
21
29
25
18
24
30
5
30
13
28
21
27
13
21
24
23
19
24
14
15
5
8
15
27
24
25
13
25
7
23
30
21
29
5
29
10
27
9
22
5
28
9
9
28
21
12
20
28
30
25
30
25
25
5
8
25
21
20
20
10
27
18
25
14
9
10
12
12
30
30
30
9
28
5
18
18
9
26
30
25
30
30
23
25
7
19
5
23
29
28
21
22
13
27
29
30
23
5
29
29
24
27
28
25
18
15
30
22
15
21
21
25
30
24
30
30
21
12
27
21
25
13
25
23
9
23
30
28
13
12
27
8
23
30
8
5
21
17
27
29
7
30
9
6
9
14
30
5
16
23
20
29
21
22
23
25
9
7
28

real    4m14.910s
user    4m12.969s
sys     0m0.094s
