PATH: ./data/ZKW/ZKW10_inst.dat
GETTING ANSWERS FROM: ./data/ZKW/ZKW10_sol.dat
2735, 0.0000753403
3258, 0.0000383854
4839, 0.0000879765
5877, 0.0001502037
3755, 0.0000176430
3826, 0.0001974106
4978, 0.0003511906
6488, 0.0001051426
6552, 0.0000433922
3757, 0.0001723766
2238, 0.0000891685
4857, 0.0003464222
30312, 0.0000195503
8582, 0.0001373291
4332, 0.0002224445
7142, 0.0007545948
2867, 0.0000660419
5045, 0.0001947880
9080, 0.0000226498
4682, 0.0000443459
2798, 0.0000162125
6184, 0.0002472401
4937, 0.0001881123
8048, 0.0000169277
8787, 0.0003712177
8162, 0.0003440380
5240, 0.0001018047
5315, 0.0001747608
3312, 0.0000176430
2985, 0.0000658035
7329, 0.0004043579
4480, 0.0001955032
3389, 0.0002560616
4689, 0.0000231266
11415, 0.0000140667
34848, 0.0000133514
3427, 0.0000422001
4314, 0.0000765324
4520, 0.0000317097
7507, 0.0003056526
3694, 0.0000367165
7369, 0.0002179146
5812, 0.0000157356
2549, 0.0000705719
6357, 0.0003545284
21241, 0.0000154972
8129, 0.0001225471
6117, 0.0001454353
8862, 0.0001204014
6718, 0.0003612041
9078, 0.0004034042
7971, 0.0000615120
7379, 0.0003590584
3927, 0.0000252724
3093, 0.0000674725
3592, 0.0000360012
3334, 0.0000491142
3634, 0.0001921654
5517, 0.0003113747
4910, 0.0000469685
6372, 0.0001554489
3177, 0.0001015663
4079, 0.0002372265
6513, 0.0004482269
6138, 0.0002567768
6385, 0.0001218319
5547, 0.0002288818
75019, 0.0000207424
5367, 0.0003921986
6059, 0.0003509521
2971, 0.0000360012
7893, 0.0002830029
1680, 0.0000181198
6520, 0.0004732609
6085, 0.0003223419
6677, 0.0003006458
4209, 0.0002694130
5537, 0.0002501011
9295, 0.0004000664
4855, 0.0000519753
6482, 0.0003035069
7080, 0.0004570484
3770, 0.0001673698
3240, 0.0000226498
2392, 0.0000612736
1909, 0.0000157356
5943, 0.0000300407
7414, 0.0002043247
4750, 0.0002634525
5223, 0.0000441074
7805, 0.0003943443
7829, 0.0003499985
7208, 0.0002841949
6463, 0.0002362728
1475, 0.0000574589
10191, 0.0000150204
3990, 0.0000722408
2997, 0.0002095699
6731, 0.0001089573
1209, 0.0000166893
6209, 0.0003666878
2010, 0.0000181198
2322, 0.0000300407
4365, 0.0000922680
5978, 0.0004479885
4065, 0.0003142357
4134, 0.0005395412
4563, 0.0000252724
6949, 0.0003039837
11600, 0.0000267029
11435, 0.0004909039
11889, 0.0000317097
8457, 0.0002610683
4662, 0.0000686646
9812, 0.0006995201
4702, 0.0002286434
3616, 0.0000650883
4574, 0.0000510216
6247, 0.0003974438
2059, 0.0000336170
25862, 0.0000140667
4714, 0.0002536774
3791, 0.0000193119
7993, 0.0003771782
8301, 0.0000162125
5929, 0.0005459785
3411, 0.0000925064
5045, 0.0001728535
4887, 0.0000307560
6713, 0.0001060963
5475, 0.0000231266
6618, 0.0002820492
5236, 0.0000619888
4803, 0.0000600815
1766, 0.0000164509
8098, 0.0004811287
5471, 0.0000913143
6149, 0.0002772808
5635, 0.0002694130
7311, 0.0004053116
8589, 0.0003573895
1835, 0.0000376701
7826, 0.0004265308
10275, 0.0000863075
6344, 0.0002994537
2552, 0.0000324249
2729, 0.0000557899
4404, 0.0000336170
6203, 0.0000627041
2522, 0.0000262260
7271, 0.0001213551
1516, 0.0000255108
1769, 0.0000817776
13473, 0.0000140667
2895, 0.0000340939
1132, 0.0000169277
2967, 0.0000455379
4506, 0.0000209808
4677, 0.0000424385
6723, 0.0002667904
9108, 0.0003511906
6384, 0.0003266335
4678, 0.0000166893
3842, 0.0001087189
4869, 0.0000412464
5968, 0.0001096725
5241, 0.0000960827
6025, 0.0001165867
12628, 0.0004453659
2692, 0.0000464916
1363, 0.0000162125
6606, 0.0000147820
5336, 0.0001363754
4782, 0.0002670288
5707, 0.0003888607
7557, 0.0001811981
1072, 0.0000259876
13604, 0.0003864765
7329, 0.0000429153
6691, 0.0000960827
4992, 0.0000782013
6900, 0.0000834465
4147, 0.0002465248
2306, 0.0000231266
3935, 0.0000498295
4139, 0.0000288486
1405, 0.0000231266
7957, 0.0002264977
1698, 0.0000171661
4948, 0.0001218319
7471, 0.0001845360
3231, 0.0001227856
3817, 0.0002298355
4972, 0.0003056526
6330, 0.0004363060
6943, 0.0002238750
4767, 0.0001339912
7010, 0.0003650188
4667, 0.0002837181
4374, 0.0000369549
2089, 0.0000343323
10250, 0.0003640652
3297, 0.0000221729
2825, 0.0000162125
3302, 0.0000488758
7752, 0.0000391006
2159, 0.0000231266
5044, 0.0002059937
5655, 0.0000355244
3445, 0.0000154972
4904, 0.0002052784
4815, 0.0000233650
3393, 0.0000698566
5633, 0.0002944469
243425, 0.0000259876
4017, 0.0001742840
2812, 0.0000495911
6152, 0.0002801418
8023, 0.0006730556
5699, 0.0000321865
3066, 0.0000171661
4470, 0.0002188683
7970, 0.0002717972
3335, 0.0001931190
2248, 0.0000383854
2232, 0.0000295639
5604, 0.0002517700
2597, 0.0000405312
5603, 0.0003948212
1407, 0.0000250340
6365, 0.0001704693
4085, 0.0000174046
6828, 0.0001795292
7432, 0.0003859997
5820, 0.0002734661
5539, 0.0002629757
10420, 0.0003526211
2222, 0.0000183582
3492, 0.0002758503
3649, 0.0000526905
4199, 0.0003700256
7397, 0.0003886223
5779, 0.0000677109
7525, 0.0005443096
6055, 0.0003478527
4999, 0.0000164509
10009, 0.0013480186
3702, 0.0000407696
4770, 0.0000228882
4168, 0.0000770092
3402, 0.0000226498
4776, 0.0002901554
3978, 0.0000362396
3272, 0.0000162125
5086, 0.0002958775
3247, 0.0003144741
9234, 0.0004036427
7638, 0.0005145073
5137, 0.0002512932
3918, 0.0000362396
5883, 0.0000813007
4317, 0.0002415180
1315, 0.0000178814
4670, 0.0002064705
6335, 0.0001909733
8193, 0.0002567768
3867, 0.0002150536
6292, 0.0003325939
2341, 0.0000176430
6522, 0.0001344681
809, 0.0000174046
3777, 0.0002779961
8674, 0.0005068779
5885, 0.0001103878
3256, 0.0000162125
4663, 0.0000314713
1521, 0.0000166893
5748, 0.0003485680
4653, 0.0000329018
4692, 0.0002231598
8153, 0.0004343987
6313, 0.0003185272
2535, 0.0000579357
5659, 0.0000827312
5737, 0.0000429153
15271, 0.0000145435
2414, 0.0000162125
2212, 0.0000391006
4770, 0.0000162125
10210, 0.0000376701
7698, 0.0004866123
4147, 0.0001735687
2538, 0.0001120567
3431, 0.0000164509
4742, 0.0002894402
155890, 0.0000357628

PATH: ./data/ZKW/ZKW15_inst.dat
GETTING ANSWERS FROM: ./data/ZKW/ZKW15_sol.dat
4797, 0.0005176067
1890, 0.0000340939
6980, 0.0012433529
5784, 0.0007865429
2114, 0.0001165867
2662, 0.0000195503
3580, 0.0001711845
3553, 0.0001125336
1848, 0.0000183582
9054, 0.0049264431
3362, 0.0000517368
6416, 0.0008931160
6507, 0.0000903606
3147, 0.0000729561
2876, 0.0000243187
2454, 0.0000388622
4567, 0.0000345707
6451, 0.0050425529
2496, 0.0000419617
6196, 0.0013625622
5133, 0.0000956059
5712, 0.0007405281
7169, 0.0009260178
8469, 0.0001974106
5643, 0.0012991428
11528, 0.0013732910
2694, 0.0000543594
5456, 0.0000159740
3912, 0.0000550747
2978, 0.0000166893
2196, 0.0000159740
4131, 0.0000331402
2510, 0.0000760555
4563, 0.0001246929
6664, 0.0000164509
2732, 0.0000152588
5692, 0.0000314713
7420, 0.0028493404
4144, 0.0000619888
4426, 0.0000369549
7992, 0.0013225079
9582, 0.0009796619
2307, 0.0001070499
21144, 0.0000200272
4959, 0.0002760887
5367, 0.0014059544
2978, 0.0000247955
2878, 0.0000319481
2781, 0.0000238419
7771, 0.0012526512
1294, 0.0000271797
3570, 0.0000171661
3336, 0.0000734329
4049, 0.0000860691
3385, 0.0000422001
3909, 0.0005538464
4883, 0.0000362396
4721, 0.0001320839
4386, 0.0001397133
5559, 0.0006618500
8320, 0.0033481121
11355, 0.0110821724
4821, 0.0010416508
5916, 0.0000197887
4762, 0.0008342266
4114, 0.0003149509
7128, 0.0002753735
9406, 0.0001599789
5557, 0.0009682178
7158, 0.0004034042
6658, 0.0005662441
3455, 0.0012307167
5323, 0.0000286102
4143, 0.0000348091
4992, 0.0005478859
4572, 0.0000281334
6811, 0.0000309944
1754, 0.0000247955
4878, 0.0002789497
3396, 0.0005989075
2867, 0.0001554489
3673, 0.0003659725
3520, 0.0000360012
10420, 0.0000188351
5647, 0.0000474453
5486, 0.0000970364
4847, 0.0000770092
4686, 0.0007469654
6901, 0.0004675388
6766, 0.0016009808
10778, 0.0088799000
2891, 0.0000588894
8061, 0.0047173500
2184, 0.0000555515
5107, 0.0008866787
4403, 0.0005178452
13970, 0.0105037689
4164, 0.0000653267
7904, 0.0016825199
5876, 0.0002913475
1237, 0.0000271797
1760, 0.0000157356
3159, 0.0000674725
6043, 0.0000340939
5640, 0.0006875992
1998, 0.0000195503
5420, 0.0004150867
314, 0.0000185966
5103, 0.0000231266
9413, 0.0006070137
5036, 0.0008685589
3276, 0.0003461838
7490, 0.0011222363
9085, 0.0033221245
10727, 0.0012524128
3966, 0.0001091957
6709, 0.0021712780
2576, 0.0000832081
2489, 0.0000481606
4132, 0.0002126694
2990, 0.0000188351
2360, 0.0000340939
2769, 0.0000624657
2207, 0.0000209808
6092, 0.0015265942
5995, 0.0000767708
4075, 0.0000410080
2350, 0.0000188351
2763, 0.0000247955
39088, 0.0000150204
6177, 0.0002236366
6089, 0.0001564026
11376, 0.0086786747
10653, 0.0000836849
4258, 0.0006103516
4220, 0.0008020401
2520, 0.0000293255
6575, 0.0001561642
6797, 0.0005166531
4087, 0.0003211498
4779, 0.0000641346
2444, 0.0000481606
7511, 0.0003840923
6619, 0.0024425983
4981, 0.0005090237
6735, 0.0007982254
5972, 0.0002167225
4854, 0.0000319481
5027, 0.0004878044
4257, 0.0000507832
4321, 0.0009996891
7419, 0.0022006035
8572, 0.0157480240
4448, 0.0000357628

PATH: ./data/ZKW/ZKW20_inst.dat
GETTING ANSWERS FROM: ./data/ZKW/ZKW20_sol.dat
5067, 0.0000760555
3678, 0.0000698566
7203, 0.0009591579
3207, 0.0000257492
9956, 0.0051467419
1952, 0.0000214577
6840, 0.0097334385
3066, 0.0000267029
1979, 0.0000422001
7237, 0.0000336170
3657, 0.0000171661
3595, 0.0002005100
2342, 0.0001349449
2576, 0.0000197887
8111, 0.0163078308
5057, 0.0002062321
6393, 0.0001423359
6688, 0.0025076866
4431, 0.0012102127
2834, 0.0000276566
4136, 0.0000493526
2074, 0.0000422001
6866, 0.0000221729
8245, 0.0092191696
4563, 0.0001993179
4748, 0.0001969337
5724, 0.0001318455
6518, 0.0033850670
6884, 0.0000863075
5171, 0.0002045631
5633, 0.0010669231
4842, 0.0001120567
3619, 0.0000393391
3811, 0.0000176430
7126, 0.0000872612
7297, 0.0034196377
5413, 0.0002646446
4374, 0.0000498295
9662, 0.0000653267
6488, 0.0015027523
7084, 0.0002422333
2421, 0.0000290871
1736, 0.0000240803
4618, 0.0001411438
4533, 0.0001456738
6601, 0.0007321835
8949, 0.0076220036
2282, 0.0001089573
2628, 0.0000190735
4880, 0.0001931190
6865, 0.0000896454
5171, 0.0001208782
3268, 0.0001649857
9774, 0.0108497143
4879, 0.0000216961
20495, 0.0000298023
5457, 0.0000503063
7211, 0.0027282238
5159, 0.0034990311
6235, 0.0010635853
4126, 0.0000331402
4218, 0.0000336170
9931, 0.0367724895
1739, 0.0000324249
1757, 0.0000264645
7263, 0.0033731461
11160, 0.0000641346
1326, 0.0000276566
2093, 0.0000181198
9152, 0.0378434658
4848, 0.0000340939
3145, 0.0000529289
4625, 0.0007591248
4973, 0.0003714561
3195, 0.0002098083
3979, 0.0008492470
2458, 0.0000200272

PATH: ./data/ZKW/ZKW22_inst.dat
GETTING ANSWERS FROM: ./data/ZKW/ZKW22_sol.dat
23619, 0.0000243187
2612, 0.0000374317
1086, 0.0000207424
2979, 0.0001227856
11790, 0.0000422001
6813, 0.0026147366
6358, 0.0053164959
5054, 0.0050334930
6704, 0.0109868050
3529, 0.0001287460
6629, 0.0001590252
155888, 0.0001056194
5045, 0.0001966953
9003, 0.1117744446
4642, 0.0045616627
2307, 0.0000483990
3180, 0.0001971722
2664, 0.0000534058
3334, 0.0003192425
4822, 0.0000278950
4032, 0.0001764297
4280, 0.0000188351
3262, 0.0000348091
5593, 0.0029063225
5623, 0.0002503395
10070, 0.0056369305
10024, 0.0000309944
4345, 0.0000905991
1722, 0.0000200272
2503, 0.0000407696
6473, 0.0030329227
12564, 0.3528740406
3958, 0.0002219677
4424, 0.0000565052
3550, 0.0001864433
8703, 0.0002331734
9165, 0.0101678371
2939, 0.0002844334
3528, 0.0006256104
4234, 0.0000274181
2931, 0.0002646446
3466, 0.0000381470
1927, 0.0000505447
8954, 0.0000209808
67536, 0.0000212193
4356, 0.0002818108
3578, 0.0003070831
12294, 0.0000693798
7060, 0.0001463890
1405, 0.0000193119
6692, 0.0009942055
8539, 0.0077059269
3954, 0.0000579357
3253, 0.0000259876
3954, 0.0000257492
7264, 0.0017018318
6029, 0.0001058578
4618, 0.0001244545
4105, 0.0000369549
4297, 0.0000457764
6835, 0.0014626980
4585, 0.0000276566
4134, 0.0002343655
4025, 0.0002703667
8538, 0.0000238419
6036, 0.0007867813
3836, 0.0001199245
6096, 0.0067932606
11040, 0.1326293945
2089, 0.0000345707
7112, 0.0951871872
7498, 0.0009582043
1616, 0.0000383854
8204, 0.0011858940
3509, 0.0001072884
8843, 0.0001413822
6760, 0.0000452995
4393, 0.0000319481
5938, 0.0000612736

PATH: ./data/ZKW/ZKW4_inst.dat
GETTING ANSWERS FROM: ./data/ZKW/ZKW4_sol.dat
1201, 0.0000340939
3029, 0.0000369549
2252, 0.0000164509
8354, 0.0000205040
3481, 0.0000212193
3082, 0.0000221729
6376, 0.0000317097
4911, 0.0000352859
6536, 0.0000140667
1887, 0.0000143051
11178, 0.0000255108
3919, 0.0000309944
10802, 0.0000174046
4259, 0.0000317097
12485, 0.0000128746
3068, 0.0000340939
5469, 0.0000193119
4826, 0.0000286102
7645, 0.0000138283
1625, 0.0000197887
6227, 0.0000195503
3847, 0.0000526905
10116, 0.0000135899
5438, 0.0000329018
3606, 0.0000197887
6185, 0.0000317097
9272, 0.0000197887
177150, 0.0000174046
4398, 0.0000221729
1673, 0.0000274181
4118, 0.0000307560
3533, 0.0000321865
3489, 0.0000143051
7215, 0.0000300407
3500, 0.0000305176
6935, 0.0000293255
4088, 0.0000312328
6962, 0.0000267029
6729, 0.0000312328
4354, 0.0000309944
8812, 0.0000131130
2435, 0.0000152588
8424, 0.0000185966
3765, 0.0000207424
1346, 0.0000329018
4864, 0.0000128746
2180, 0.0000321865
3530, 0.0000300407
4281, 0.0000214577
1862, 0.0000331402
7170, 0.0000264645
2706, 0.0000157356
6146, 0.0000319481
17186, 0.0000121593
3794, 0.0000295639
4258, 0.0000298023
4467, 0.0000360012
2460, 0.0000152588
5913, 0.0000133514
3660, 0.0000329018
7276, 0.0000309944
7139, 0.0000188351
4472, 0.0000333786
5663, 0.0000324249
10044, 0.0000281334
7681, 0.0000140667
5039, 0.0000309944
11037, 0.0000190735
3463, 0.0000143051
8971, 0.0000257492
6060, 0.0000312328
1723, 0.0000302792
4375, 0.0000309944
4822, 0.0000317097
2344, 0.0000300407
3349, 0.0000309944
2449, 0.0000324249
4281, 0.0000331402
3420, 0.0000145435
4437, 0.0000519753
3500, 0.0000286102
1788, 0.0000267029
3700, 0.0000350475
1929, 0.0000224113
2871, 0.0000236034
26828, 0.0000131130
4287, 0.0000345707
2156, 0.0000224113
5097, 0.0000133514
3852, 0.0000190735
2987, 0.0000329018
3375, 0.0000219345
7030, 0.0000293255
2111, 0.0000226498
4719, 0.0000312328
7875, 0.0000190735
3673, 0.0000352859
1275, 0.0000152588
2873, 0.0000338554
3583, 0.0000300407
6921, 0.0000140667
4164, 0.0000209808
3205, 0.0000317097
2671, 0.0000309944
1014, 0.0000152588
4609, 0.0000290871
3099, 0.0000314713
7732, 0.0000278950
1940, 0.0000236034
1813, 0.0000357628
7277, 0.0000212193
2827, 0.0000469685
82810, 0.0000300407
5857, 0.0000336170
3010, 0.0000152588
3853, 0.0000388622
5889, 0.0000133514
2794, 0.0000123978
10811, 0.0000295639
7182, 0.0000290871
5878, 0.0000331402
6437, 0.0000140667
2265, 0.0000143051
10966, 0.0000121593
1762, 0.0000357628
24500, 0.0000126362
4216, 0.0000312328
4671, 0.0000295639
5351, 0.0000290871
4051, 0.0000138283
2493, 0.0000283718
4158, 0.0000932217
2987, 0.0000317097
6416, 0.0000331402
1480, 0.0000228882
3896, 0.0000553131
3650, 0.0000345707
6358, 0.0000302792
2056, 0.0000362396
5265, 0.0000212193
3475, 0.0000214577
3036, 0.0000321865
4414, 0.0000286102
2106, 0.0000193119
3907, 0.0000345707
2534, 0.0000197887
4356, 0.0000195503
5034, 0.0000205040
1265, 0.0000355244
1805, 0.0000152588
4303, 0.0000324249
1776, 0.0000329018
4306, 0.0000305176
5809, 0.0000200272
2564, 0.0000207424
3574, 0.0000133514
4646, 0.0000307560
11732, 0.0000131130
2653, 0.0000367165
4417, 0.0000290871
4626, 0.0000226498
4861, 0.0000200272
1479, 0.0000143051
5862, 0.0000312328
6112, 0.0000135899
14721, 0.0000169277
2954, 0.0000338554
6221, 0.0000190735
5720, 0.0000314713
167463, 0.0000174046
4460, 0.0000302792
2916, 0.0000319481
2974, 0.0000379086
3922, 0.0000331402
2635, 0.0000312328
2852, 0.0000331402
6075, 0.0000305176
6031, 0.0000324249
2526, 0.0000314713
3807, 0.0000212193
3856, 0.0000371933
2848, 0.0000474453
2994, 0.0000324249
14144, 0.0000159740
634, 0.0000143051
3045, 0.0000345707
4727, 0.0000283718
259323, 0.0000126362
6980, 0.0000312328
3430, 0.0000312328
5289, 0.0000209808
1973, 0.0000391006
4867, 0.0000717640
3473, 0.0000350475
2567, 0.0000219345
4903, 0.0000300407
4715, 0.0000331402
5180, 0.0000290871
5543, 0.0000302792
4340, 0.0000364780
3953, 0.0000381470
2091, 0.0000450611
2586, 0.0000340939
4846, 0.0000329018
5603, 0.0000159740
11138, 0.0000138283
1920, 0.0000352859
4729, 0.0000309944
2341, 0.0000145435
9272, 0.0000276566
4749, 0.0000321865
6418, 0.0000309944
3326, 0.0000314713
3892, 0.0000145435
3406, 0.0000286102
3011, 0.0000331402
4286, 0.0000536442
3715, 0.0000381470
1479, 0.0000574589
5819, 0.0000450611
5905, 0.0000360012
5112, 0.0000193119
4240, 0.0000317097
6128, 0.0000293255
3180, 0.0000219345
6798, 0.0000290871
4651, 0.0000355244
2000, 0.0000307560
7149, 0.0000185966
3969, 0.0000312328
2616, 0.0000219345
4391, 0.0000326633
2209, 0.0000128746
4179, 0.0000386238
9872, 0.0000207424
1401, 0.0000231266
3260, 0.0000331402
2145, 0.0000140667
5500, 0.0000333786
7917, 0.0000317097
4126, 0.0000319481
3975, 0.0000305176
2795, 0.0000128746
2573, 0.0000152588
4167, 0.0000302792
3282, 0.0000314713
2660, 0.0000317097
2253, 0.0000157356
11749, 0.0000128746
3960, 0.0000300407
3690, 0.0000355244
4759, 0.0000293255
2543, 0.0000348091
4258, 0.0000336170
3222, 0.0000340939
1278, 0.0000231266
5353, 0.0000195503
13334, 0.0000121593
2419, 0.0000321865
6257, 0.0000317097
5247, 0.0000219345
4271, 0.0000314713
1902, 0.0000228882
10314, 0.0000166893
3372, 0.0000221729
5488, 0.0000119209
5000, 0.0000307560
4256, 0.0000312328
5729, 0.0000367165
3955, 0.0000302792
3828, 0.0000560284
9414, 0.0000126362
17420, 0.0000126362
8172, 0.0000264645
4598, 0.0000326633
7620, 0.0000188351
7030, 0.0000290871
2139, 0.0000329018
5405, 0.0000140667
11152, 0.0000245571
12579, 0.0000169277
2721, 0.0000324249
7040, 0.0000262260
5089, 0.0000321865
3468, 0.0000305176
5602, 0.0000274181
21443, 0.0000128746
4217, 0.0000274181
9101, 0.0000181198
4340, 0.0000321865
1341, 0.0000221729
9501, 0.0000281334
5895, 0.0000312328
2622, 0.0000143051
24384, 0.0000123978
1136, 0.0000150204
3894, 0.0000283718
6414, 0.0000212193
2913, 0.0000340939
951, 0.0000228882
1626, 0.0000150204
2357, 0.0000209808
2417, 0.0000195503
5586, 0.0000188351
2631, 0.0000319481
2676, 0.0000226498
3484, 0.0000214577
4248, 0.0000286102
2558, 0.0000226498
2455, 0.0000324249
8611, 0.0000128746
4911, 0.0000314713
2760, 0.0000307560
3743, 0.0000138283
2569, 0.0000300407
3102, 0.0000307560
4898, 0.0000321865
2903, 0.0000216961
2442, 0.0000135899
1961, 0.0000209808
5938, 0.0000200272
3682, 0.0000226498
3706, 0.0000135899
10613, 0.0000193119
3420, 0.0000343323
546, 0.0000145435
4506, 0.0000205040
4765, 0.0000295639
4660, 0.0000343323
3432, 0.0000138283
10027, 0.0000302792
4434, 0.0000197887
3240, 0.0000183582
5953, 0.0000300407
2700, 0.0000326633
3666, 0.0000200272
1583, 0.0000181198
2895, 0.0000298023
11856, 0.0000131130
3662, 0.0000360012
4281, 0.0000345707
1626, 0.0000231266
2238, 0.0000143051
10165, 0.0000288486
4112, 0.0000333786
2696, 0.0000143051
3118, 0.0000309944
4949, 0.0000309944
2460, 0.0000324249
4173, 0.0000205040
84084, 0.0000121593
3351, 0.0000317097
9971, 0.0000119209
2027, 0.0000307560
75820, 0.0000228882
32824, 0.0000119209
792, 0.0000340939
3319, 0.0000336170
49329, 0.0000169277
5010, 0.0000212193
5811, 0.0000276566
2583, 0.0000143051
3986, 0.0000135899
5167, 0.0000319481
4732, 0.0000321865
3123, 0.0000319481
2574, 0.0000319481
2279, 0.0000154972
5608, 0.0000188351
4346, 0.0000309944
7404, 0.0000319481
17686, 0.0000126362
3746, 0.0000324249
2699, 0.0000135899
5818, 0.0000295639
4807, 0.0000197887
5758, 0.0000200272
2402, 0.0000207424
1908, 0.0000195503
4046, 0.0000295639
3725, 0.0000309944
2350, 0.0000140667
2971, 0.0000145435
4078, 0.0000309944
2415, 0.0000145435
3164, 0.0000333786
3919, 0.0000145435
4772, 0.0000138283
3049, 0.0000312328
7081, 0.0000324249
4326, 0.0000302792
1409, 0.0000307560
3853, 0.0000226498
2166, 0.0000350475
2710, 0.0000154972
6797, 0.0000190735
2675, 0.0000305176
4387, 0.0000324249
3195, 0.0000143051
52047, 0.0000174046
3162, 0.0000216961
2936, 0.0000226498
2033, 0.0000340939
2532, 0.0000152588
4997, 0.0000262260
1895, 0.0000126362
4096, 0.0000309944
2466, 0.0000226498
4616, 0.0000319481
1613, 0.0000333786
2334, 0.0000190735
6099, 0.0000286102
3163, 0.0000314713
921, 0.0000188351
4720, 0.0000219345
746, 0.0000154972
2735, 0.0000212193
6932, 0.0000309944
2076, 0.0000205040
7369, 0.0000307560
5646, 0.0000212193
5876, 0.0000317097
4393, 0.0000321865
4550, 0.0000135899
1447, 0.0000135899
2999, 0.0000135899
4537, 0.0000193119
7537, 0.0000123978
3639, 0.0000195503
2366, 0.0000329018
4455, 0.0000193119
3303, 0.0000135899
2091, 0.0000193119
5112, 0.0000302792
5913, 0.0000324249
2570, 0.0000302792
2489, 0.0000214577
1420, 0.0000221729
8837, 0.0000121593
4169, 0.0000338554
4361, 0.0000345707
4625, 0.0000133514
2696, 0.0000317097
2504, 0.0000226498
2364, 0.0000290871
4645, 0.0000321865
1401, 0.0000212193
3974, 0.0000317097
3340, 0.0000281334
4717, 0.0000319481
6191, 0.0000307560
3098, 0.0000300407
5276, 0.0000293255
6562, 0.0000283718
1476, 0.0000123978
2502, 0.0000321865
2263, 0.0000333786
2428, 0.0000352859
2759, 0.0000348091
4813, 0.0000298023
10774, 0.0000252724
6578, 0.0000276566
6507, 0.0000309944
5652, 0.0000293255
4294, 0.0000336170
4722, 0.0000298023
4264, 0.0000200272
5302, 0.0000290871
4791, 0.0000324249
4888, 0.0000319481
4461, 0.0000281334
3134, 0.0000281334
1688, 0.0000138283
2732, 0.0000131130
4501, 0.0000321865
7712, 0.0000329018
3563, 0.0000150204
5023, 0.0000200272
2091, 0.0000579357
2144, 0.0000202656
6272, 0.0000321865
5077, 0.0000133514
3837, 0.0000336170
5541, 0.0000324249
6903, 0.0000188351
2869, 0.0000307560
4917, 0.0000302792
5773, 0.0000307560
2366, 0.0000216961
1076, 0.0000152588
2023, 0.0000128746
2113, 0.0000138283
6212, 0.0000278950
3523, 0.0000691414
2872, 0.0000312328
2045, 0.0000314713
4184, 0.0000321865
9189, 0.0000286102
1717, 0.0000135899
7602, 0.0000293255
2217, 0.0000333786
5908, 0.0000286102
5111, 0.0000336170
8786, 0.0000193119
4296, 0.0000295639
4672, 0.0000519753
4665, 0.0000138283
3711, 0.0000329018
7759, 0.0000276566
24514, 0.0000228882
2073, 0.0000314713
3745, 0.0000226498
6065, 0.0000286102
3178, 0.0000197887
9576, 0.0000123978
6695, 0.0000300407
1991, 0.0000140667
2025, 0.0000140667
7804, 0.0000293255
3324, 0.0000221729
5340, 0.0000324249
8874, 0.0000503063
3369, 0.0000469685
3597, 0.0000689030
3170, 0.0000348091
3709, 0.0000305176
1805, 0.0000326633
7013, 0.0000326633
4193, 0.0000309944
5143, 0.0000262260
2978, 0.0000302792
4031, 0.0000300407
3696, 0.0000312328
2907, 0.0000321865
3956, 0.0000338554
5215, 0.0000305176
31037, 0.0000181198
27291, 0.0000128746
10618, 0.0000123978
6245, 0.0000133514
1893, 0.0000231266
2915, 0.0000214577
1551, 0.0000147820
3574, 0.0000274181
3169, 0.0000209808
4705, 0.0000317097
5469, 0.0000207424
3930, 0.0000188351
3421, 0.0000317097
11576, 0.0000240803
3478, 0.0000307560
42570, 0.0000171661
8377, 0.0000283718
2430, 0.0000298023
5017, 0.0000195503
6469, 0.0000298023
3713, 0.0000135899
2433, 0.0000140667
3812, 0.0000321865
4561, 0.0000360012
880, 0.0000157356
4595, 0.0000329018
3531, 0.0000281334
3227, 0.0000321865
4273, 0.0000329018
3689, 0.0000145435
5316, 0.0000221729
4918, 0.0000312328
5611, 0.0000138283
2649, 0.0000309944
5127, 0.0000309944
2967, 0.0000143051
14556, 0.0000128746
4318, 0.0000360012
4295, 0.0000302792
2226, 0.0000245571
2421, 0.0000362396
3432, 0.0000216961
4045, 0.0000219345
2136, 0.0000233650
3016, 0.0000290871
3310, 0.0000309944
1434, 0.0000205040
2080, 0.0000562668
2740, 0.0000178814
6110, 0.0000314713
3893, 0.0000360012
5014, 0.0000221729
4807, 0.0000324249
2675, 0.0000131130
4299, 0.0000307560
4929, 0.0000233650
3976, 0.0000269413
3922, 0.0000336170
5312, 0.0000350475
4948, 0.0000352859
8421, 0.0000212193
2927, 0.0000426769
2267, 0.0000319481
3777, 0.0000588894
1584, 0.0000314713
6149, 0.0000281334
4703, 0.0000667572
1389, 0.0000536442
2115, 0.0000622272
3894, 0.0000367165
5159, 0.0000660419
6247, 0.0000593662
3662, 0.0000343323
3692, 0.0000164509
4901, 0.0000360012
4291, 0.0000357628
3391, 0.0000243187
4605, 0.0000331402
5593, 0.0000617504
3384, 0.0000576973
5013, 0.0000250340
4838, 0.0000400543
5433, 0.0000226498
6211, 0.0000326633
4025, 0.0000355244
6039, 0.0000338554
3102, 0.0000362396
3796, 0.0000350475
2622, 0.0000150204
4268, 0.0000331402
4402, 0.0000376701
2652, 0.0000379086
3537, 0.0000452995
4130, 0.0000371933
3757, 0.0000414848
4416, 0.0000164509
5089, 0.0000274181
1809, 0.0000329018
1956, 0.0000159740
3729, 0.0000195503
17569, 0.0000152588
2423, 0.0000383854
8534, 0.0000402927
4853, 0.0000376701
8344, 0.0000302792
16846, 0.0000205040
4078, 0.0000154972
4791, 0.0000231266
4175, 0.0000431538
1893, 0.0000209808
2034, 0.0000309944
18026, 0.0000197887
270389, 0.0000195503
8853, 0.0000319481
4443, 0.0000388622
6267, 0.0000388622
7001, 0.0000224113
3301, 0.0000486374
2467, 0.0000350475
3231, 0.0000157356
3141, 0.0000214577
2189, 0.0000429153
5979, 0.0000178814
8021, 0.0000150204
4495, 0.0000343323
3001, 0.0000598431
2951, 0.0000452995
4194, 0.0000464916
4173, 0.0000486374
6451, 0.0000367165
4981, 0.0000445843
3078, 0.0000238419
8077, 0.0000617504
2140, 0.0000171661
2426, 0.0000503063
3910, 0.0000531673
939, 0.0000176430
2735, 0.0000216961
4089, 0.0000352859
8756, 0.0000333786
5634, 0.0000262260
1939, 0.0000138283
998, 0.0000290871
2942, 0.0000166893
6342, 0.0000636578
1661, 0.0000154972
2537, 0.0000355244
2872, 0.0000333786
2567, 0.0000247955
3468, 0.0000357628
3916, 0.0000154972
2006, 0.0000228882
5045, 0.0000147820
4781, 0.0000143051
5222, 0.0000324249
6066, 0.0000398159
642, 0.0000159740
3336, 0.0000321865
9077, 0.0000278950
4745, 0.0000331402
3886, 0.0000145435
2040, 0.0000233650
3158, 0.0000851154
13840, 0.0000123978
3978, 0.0000143051
4222, 0.0000300407
2924, 0.0000200272
3365, 0.0000333786
1865, 0.0000228882
3026, 0.0000212193
4600, 0.0000314713
6507, 0.0000307560
1332, 0.0000152588
1001, 0.0000143051
3469, 0.0000212193
3490, 0.0000317097
19842, 0.0000178814
3474, 0.0000536442
1621, 0.0000157356
3292, 0.0000464916
2199, 0.0000693798
2951, 0.0000166893
5145, 0.0000376701
27227, 0.0000188351
3536, 0.0000326633
1228, 0.0000491142
5359, 0.0000293255
7193, 0.0000450611
3450, 0.0000512600
5262, 0.0000410080
3189, 0.0000727177
2774, 0.0000433922
5823, 0.0000624657
3399, 0.0000247955
11347, 0.0000488758
4293, 0.0000448227
4269, 0.0000603199
2749, 0.0000567436
7707, 0.0000228882
4087, 0.0000379086
5522, 0.0000343323
5716, 0.0000314713
3665, 0.0000364780
4236, 0.0000231266
3678, 0.0000262260
7721, 0.0000276566
2956, 0.0000298023
1815, 0.0000240803
4041, 0.0000138283
11480, 0.0000131130
2069, 0.0000150204
8254, 0.0000135899
5631, 0.0000319481
2595, 0.0000224113
4632, 0.0000314713
5780, 0.0000321865
6932, 0.0000200272
2235, 0.0000219345
1902, 0.0000424385
7517, 0.0000302792
6818, 0.0000305176
5548, 0.0000131130
8743, 0.0000274181
5329, 0.0000317097
5729, 0.0000529289
5705, 0.0000360012
6408, 0.0000371933
3589, 0.0000681877
2703, 0.0000188351
4037, 0.0000340939
4411, 0.0000617504
2618, 0.0000705719
3660, 0.0000529289
5042, 0.0000588894
2192, 0.0000379086
2658, 0.0000615120
5241, 0.0000462532
3978, 0.0000517368
6263, 0.0000576973
2292, 0.0000584126
3926, 0.0001032352
4209, 0.0000171661
2658, 0.0000350475
4197, 0.0000340939
5030, 0.0000162125
3262, 0.0000338554
2912, 0.0000166893
2624, 0.0000183582
4914, 0.0000815392
2000, 0.0000245571
3486, 0.0000467300
7464, 0.0000195503
2747, 0.0000147820
3661, 0.0000336170
2705, 0.0000369549
5610, 0.0000321865
3470, 0.0000150204
1907, 0.0000340939
2672, 0.0000326633
6615, 0.0000314713
3866, 0.0000302792
5684, 0.0000293255
3531, 0.0000143051
3050, 0.0000219345
2862, 0.0000498295
2993, 0.0000345707
1522, 0.0000293255
174002, 0.0000236034
3665, 0.0000329018
3570, 0.0000388622
3786, 0.0000345707
2059, 0.0000150204
2743, 0.0000479221
3105, 0.0000331402
5808, 0.0000340939
3331, 0.0000357628
2688, 0.0000355244
26004, 0.0000267029
7334, 0.0000538826
2581, 0.0000383854
5836, 0.0000517368
5859, 0.0000245571
2523, 0.0000612736
2449, 0.0000708103
3813, 0.0000307560
3237, 0.0000698566
3796, 0.0000438690
5103, 0.0000309944
4182, 0.0000243187
5730, 0.0000135899
3661, 0.0000333786
3536, 0.0000343323
7228, 0.0000300407
4658, 0.0000145435
4662, 0.0000376701
3905, 0.0000357628
8465, 0.0000641346
1674, 0.0000379086
2960, 0.0000467300
3643, 0.0000333786
4039, 0.0000326633
2661, 0.0000338554
4842, 0.0000200272
16567, 0.0000262260
3500, 0.0000326633
8031, 0.0000188351
2320, 0.0000376701
4635, 0.0000333786
5923, 0.0000422001
2188, 0.0000150204
3750, 0.0000207424
3942, 0.0000317097
3110, 0.0000329018
3276, 0.0000228882
5272, 0.0000312328
3450, 0.0000538826
4101, 0.0000474453
3453, 0.0000493526
8291, 0.0000374317
1714, 0.0000345707
2387, 0.0000240803
5974, 0.0000326633
5580, 0.0000340939
3125, 0.0000827312
7920, 0.0000615120
1675, 0.0000431538
2739, 0.0000395775
4900, 0.0000395775
3666, 0.0000278950
7017, 0.0000262260
9660, 0.0000145435
23002, 0.0000185966
1371, 0.0000321865
2344, 0.0000195503
2267, 0.0000369549
4587, 0.0000226498
11108, 0.0000319481
3952, 0.0000331402
2391, 0.0000166893
2352, 0.0000371933
4787, 0.0000514984
5601, 0.0000343323
2081, 0.0000202656
12447, 0.0000138283
6037, 0.0000307560
3640, 0.0000159740
4966, 0.0000395775
3448, 0.0000207424
13325, 0.0000543594
9910, 0.0000274181
4987, 0.0000326633
3980, 0.0000352859
2606, 0.0000252724
1036, 0.0000164509
1911, 0.0000333786
4008, 0.0000338554
3403, 0.0000338554
4969, 0.0000126362
4860, 0.0000140667
4302, 0.0000295639
3292, 0.0000293255
5162, 0.0000321865
3390, 0.0000345707
1564, 0.0000288486
4994, 0.0000290871
2638, 0.0000307560
4457, 0.0000128746
36518, 0.0000121593
3023, 0.0000510216
8259, 0.0000135899
3993, 0.0000467300
1613, 0.0000143051
2958, 0.0000314713
4680, 0.0000143051
5820, 0.0000526905
1739, 0.0000343323
3522, 0.0000195503
4156, 0.0000360012
2996, 0.0000360012
6134, 0.0000541210
4325, 0.0000364780
4195, 0.0000336170
3833, 0.0000331402
2829, 0.0000381470
4382, 0.0000324249
3805, 0.0000307560
3512, 0.0000305176
6540, 0.0000290871
3300, 0.0000145435
2375, 0.0000228882
1188, 0.0000228882
1958, 0.0000345707
2303, 0.0000219345
1120, 0.0000135899
27119, 0.0000257492
4504, 0.0000264645
4158, 0.0000135899
3866, 0.0000307560
2064, 0.0000150204
6609, 0.0000295639
2488, 0.0000309944
242379, 0.0000119209
4024, 0.0000312328
2615, 0.0000329018
2842, 0.0000147820
3303, 0.0000307560
4874, 0.0000312328
4422, 0.0000216961
51210, 0.0000386238
1594, 0.0000162125
11712, 0.0000383854
8506, 0.0000271797
2379, 0.0000154972
4873, 0.0000329018
2565, 0.0000224113
2327, 0.0000317097
4120, 0.0000352859
5563, 0.0000140667


real    0m1.260s
user    0m1.188s
sys     0m0.047s