PATH: ./data/ZKW/ZKW10_inst.dat
GETTING ANSWERS FROM: ./data/ZKW/ZKW10_sol.dat
1459, 0.0000073910
40, 0.0000052452
2368, 0.0000035763
767, 0.0000042915
1514, 0.0000028610
658, 0.0000035763
0, 0.0000042915
2325, 0.0000040531
3093, 0.0000035763
1356, 0.0000035763
1271, 0.0000033379
207, 0.0000038147
27984, 0.0000026226
5038, 0.0000035763
334, 0.0000030994
2212, 0.0000045300
191, 0.0000035763
849, 0.0000040531
0, 0.0000026226
1383, 0.0000035763
1187, 0.0000028610
0, 0.0000040531
1983, 0.0000033379
5974, 0.0000023842
0, 0.0000052452
0, 0.0000050068
2432, 0.0000030994
804, 0.0000035763
1058, 0.0000026226
393, 0.0000033379
256, 0.0000052452
144, 0.0000040531
247, 0.0000040531
2393, 0.0000026226
0, 0.0000028610
0, 0.0000023842
1377, 0.0000035763
1301, 0.0000033379
1650, 0.0000038147
0, 0.0000040531
1742, 0.0000030994
1729, 0.0000040531
5037, 0.0000028610
241, 0.0000028610
0, 0.0000047684
20374, 0.0000028610
3390, 0.0000042915
1441, 0.0000038147
2751, 0.0000038147
306, 0.0000045300
2359, 0.0000052452
5146, 0.0000038147
420, 0.0000047684
24, 0.0000033379
0, 0.0000026226
773, 0.0000033379
1049, 0.0000028610
478, 0.0000035763
138, 0.0000040531
2416, 0.0000035763
2068, 0.0000040531
798, 0.0000026226
1131, 0.0000030994
0, 0.0000536442
0, 0.0000045300
782, 0.0000040531
0, 0.0000038147
0, 0.0000028610
340, 0.0000040531
51, 0.0000042915
402, 0.0000030994
3004, 0.0000047684
0, 0.0000028610
133, 0.0000076294
0, 0.0000047684
168, 0.0000035763
1463, 0.0000030994
920, 0.0000035763
0, 0.0000047684
405, 0.0000035763
669, 0.0000045300
0, 0.0000054836
879, 0.0000033379
1747, 0.0000023842
73, 0.0000026226
1234, 0.0000026226
2716, 0.0000038147
1458, 0.0000035763
641, 0.0000045300
2025, 0.0000038147
0, 0.0000045300
187, 0.0000047684
1543, 0.0000040531
43, 0.0000038147
0, 0.0000030994
8156, 0.0000030994
315, 0.0000033379
514, 0.0000038147
3652, 0.0000038147
426, 0.0000028610
498, 0.0000047684
503, 0.0000028610
1361, 0.0000026226
281, 0.0000033379
0, 0.0000040531
1371, 0.0000028610
0, 0.0000040531
2108, 0.0000026226
1088, 0.0000040531
11165, 0.0000030994
0, 0.0000059605
6175, 0.0000038147
2212, 0.0000045300
1821, 0.0000033379
0, 0.0000054836
293, 0.0000038147
2201, 0.0000038147
1568, 0.0000033379
527, 0.0000045300
383, 0.0000026226
23793, 0.0000026226
543, 0.0000038147
3245, 0.0000033379
39, 0.0000054836
6069, 0.0000030994
17, 0.0000042915
222, 0.0000033379
354, 0.0000042915
1958, 0.0000035763
1439, 0.0000035763
3387, 0.0000028610
15, 0.0000042915
2331, 0.0000035763
1271, 0.0000038147
647, 0.0000028610
220, 0.0000052452
1146, 0.0000038147
191, 0.0000045300
612, 0.0000038147
0, 0.0000045300
0, 0.0000059605
120, 0.0000030994
0, 0.0000047684
7441, 0.0000040531
0, 0.0000042915
848, 0.0000030994
583, 0.0000023842
1394, 0.0000033379
1680, 0.0000042915
412, 0.0000026226
3312, 0.0000040531
120, 0.0000026226
296, 0.0000035763
0, 0.0000026226
137, 0.0000035763
227, 0.0000026226
734, 0.0000033379
3589, 0.0000030994
2137, 0.0000033379
837, 0.0000042915
0, 0.0000050068
1401, 0.0000045300
3177, 0.0000028610
317, 0.0000038147
2155, 0.0000038147
1353, 0.0000040531
857, 0.0000038147
1649, 0.0000040531
516, 0.0000057220
1581, 0.0000033379
497, 0.0000028610
4576, 0.0000028610
309, 0.0000040531
0, 0.0000050068
41, 0.0000042915
2403, 0.0000038147
78, 0.0000030994
0, 0.0000071526
3659, 0.0000045300
0, 0.0000042915
582, 0.0000028610
1914, 0.0000042915
591, 0.0000038147
813, 0.0000026226
748, 0.0000035763
1950, 0.0000030994
795, 0.0000026226
2697, 0.0000047684
627, 0.0000028610
200, 0.0000038147
832, 0.0000042915
232, 0.0000040531
998, 0.0000035763
0, 0.0000042915
571, 0.0000045300
1904, 0.0000038147
423, 0.0000040531
0, 0.0000052452
1051, 0.0000035763
105, 0.0000030994
436, 0.0000030994
205, 0.0000047684
2091, 0.0000026226
1212, 0.0000028610
529, 0.0000035763
4942, 0.0000035763
1016, 0.0000028610
625, 0.0000038147
1487, 0.0000030994
2026, 0.0000023842
1001, 0.0000035763
1746, 0.0000033379
687, 0.0000038147
0, 0.0000040531
0, 0.0000028610
54, 0.0000035763
637, 0.0000026226
252, 0.0000045300
760, 0.0000054836
3636, 0.0000028610
727, 0.0000028610
114, 0.0000035763
0, 0.0000040531
326, 0.0000033379
266, 0.0000030994
1631, 0.0000035763
193, 0.0000045300
173, 0.0000038147
882, 0.0000040531
253, 0.0000028610
1888, 0.0000061989
1892, 0.0000026226
3209, 0.0000038147
0, 0.0000042915
337, 0.0000040531
351, 0.0000040531
688, 0.0000050068
345, 0.0000028610
1212, 0.0000033379
1578, 0.0000035763
72, 0.0000045300
195, 0.0000040531
4048, 0.0000028610
1063, 0.0000042915
0, 0.0000050068
2582, 0.0000026226
1625, 0.0000045300
1786, 0.0000028610
3623, 0.0000026226
204, 0.0000030994
1864, 0.0000035763
0, 0.0000047684
338, 0.0000035763
1141, 0.0000028610
0, 0.0000042915
1234, 0.0000028610
1251, 0.0000052452
0, 0.0000047684
345, 0.0000038147
145, 0.0000028610
1614, 0.0000035763
336, 0.0000030994
460, 0.0000026226
1543, 0.0000035763
1310, 0.0000045300
1909, 0.0000047684
149, 0.0000033379
0, 0.0000050068
1487, 0.0000026226
38, 0.0000040531
106, 0.0000028610
189, 0.0000035763
242, 0.0000054836
1320, 0.0000035763
2343, 0.0000028610
1351, 0.0000030994
122, 0.0000026226
213, 0.0000042915
2309, 0.0000033379
1013, 0.0000030994
0, 0.0000052452
119, 0.0000045300
82, 0.0000026226
1858, 0.0000035763
3509, 0.0000030994
12820, 0.0000023842
136, 0.0000023842
392, 0.0000033379
0, 0.0000026226
8319, 0.0000035763
0, 0.0000050068
173, 0.0000028610
460, 0.0000030994
2061, 0.0000026226
973, 0.0000033379
152912, 0.0000035763

PATH: ./data/ZKW/ZKW15_inst.dat
GETTING ANSWERS FROM: ./data/ZKW/ZKW15_sol.dat
0, 0.0000066757
1265, 0.0000040531
1140, 0.0000057220
9, 0.0000047684
453, 0.0000038147
666, 0.0000033379
1208, 0.0000033379
915, 0.0000038147
425, 0.0000028610
0, 0.0000054836
597, 0.0000038147
432, 0.0000038147
2024, 0.0000035763
832, 0.0000033379
775, 0.0000028610
832, 0.0000028610
840, 0.0000038147
487, 0.0000061989
651, 0.0000030994
113, 0.0000042915
0, 0.0000045300
29, 0.0000045300
871, 0.0000050068
4042, 0.0000045300
187, 0.0000052452
1428, 0.0000052452
901, 0.0000033379
4186, 0.0000033379
1752, 0.0000038147
1586, 0.0000030994
1052, 0.0000028610
369, 0.0000045300
99, 0.0000030994
1602, 0.0000040531
0, 0.0000030994
0, 0.0000030994
2824, 0.0000042915
0, 0.0000057220
3239, 0.0000030994
149, 0.0000038147
309, 0.0000052452
368, 0.0000050068
815, 0.0000035763
0, 0.0000030994
828, 0.0000042915
239, 0.0000071526
2238, 0.0000033379
1343, 0.0000038147
954, 0.0000033379
0, 0.0000052452
260, 0.0000033379
1268, 0.0000030994
1217, 0.0000030994
1593, 0.0000038147
1053, 0.0000030994
465, 0.0000045300
452, 0.0000042915
767, 0.0000047684
284, 0.0000035763
795, 0.0000050068
0, 0.0000054836
0, 0.0000071526
52, 0.0000042915
0, 0.0000035763
185, 0.0000042915
46, 0.0000042915
1775, 0.0000040531
1085, 0.0000050068
158, 0.0000047684
0, 0.0000052452
28, 0.0000052452
951, 0.0000040531
3045, 0.0000033379
1380, 0.0000038147
0, 0.0000050068
1629, 0.0000035763
4610, 0.0000030994
606, 0.0000033379
483, 0.0000040531
0, 0.0000045300
1014, 0.0000038147
389, 0.0000038147
0, 0.0000030994
9502, 0.0000040531
919, 0.0000040531
130, 0.0000040531
0, 0.0000042915
1110, 0.0000050068
0, 0.0000045300
628, 0.0000047684
487, 0.0000061989
827, 0.0000038147
0, 0.0000052452
1620, 0.0000033379
50, 0.0000042915
1866, 0.0000038147
290, 0.0000071526
774, 0.0000042915
614, 0.0000045300
0, 0.0000045300
187, 0.0000035763
1583, 0.0000028610
1329, 0.0000030994
2526, 0.0000038147
417, 0.0000042915
500, 0.0000030994
0, 0.0000047684
159, 0.0000033379
2980, 0.0000033379
760, 0.0000050068
447, 0.0000045300
66, 0.0000040531
0, 0.0000052452
0, 0.0000057220
1013, 0.0000064373
116, 0.0000035763
0, 0.0000050068
3, 0.0000047684
204, 0.0000040531
59, 0.0000047684
869, 0.0000030994
706, 0.0000040531
540, 0.0000028610
1005, 0.0000035763
231, 0.0000059605
261, 0.0000042915
241, 0.0000042915
0, 0.0000030994
381, 0.0000040531
0, 0.0000030994
2279, 0.0000040531
1521, 0.0000038147
0, 0.0000066757
5818, 0.0000047684
348, 0.0000045300
200, 0.0000038147
0, 0.0000028610
765, 0.0000050068
0, 0.0000047684
54, 0.0000073910
2408, 0.0000038147
433, 0.0000040531
2751, 0.0000045300
0, 0.0000054836
992, 0.0000040531
220, 0.0000040531
393, 0.0000045300
3718, 0.0000030994
385, 0.0000035763
2343, 0.0000035763
831, 0.0000040531
270, 0.0000071526
211, 0.0000071526
1577, 0.0000040531

PATH: ./data/ZKW/ZKW20_inst.dat
GETTING ANSWERS FROM: ./data/ZKW/ZKW20_sol.dat
624, 0.0000073910
87, 0.0000066757
756, 0.0000061989
1298, 0.0000040531
83, 0.0000071526
1354, 0.0000038147
131, 0.0000071526
1264, 0.0000040531
474, 0.0000035763
3449, 0.0000050068
2288, 0.0000035763
385, 0.0000045300
149, 0.0000038147
0, 0.0000035763
0, 0.0000069141
225, 0.0000052452
680, 0.0000054836
0, 0.0000061989
70, 0.0000054836
169, 0.0000042915
0, 0.0000045300
260, 0.0000035763
0, 0.0000047684
162, 0.0000069141
1372, 0.0000045300
1, 0.0000081062
1006, 0.0000088215
350, 0.0000090599
2711, 0.0000088215
238, 0.0000095367
2025, 0.0000088215
768, 0.0000088215
287, 0.0000085831
1795, 0.0000057220
3296, 0.0000097752
0, 0.0000109673
1319, 0.0000104904
1102, 0.0000088215
4211, 0.0000076294
543, 0.0000054836
689, 0.0000107288
674, 0.0000038147
685, 0.0000045300
89, 0.0000045300
1118, 0.0000047684
671, 0.0000057220
0, 0.0000061989
574, 0.0000059605
877, 0.0000035763
1986, 0.0000054836
1773, 0.0000050068
994, 0.0000050068
588, 0.0000047684
0, 0.0000066757
2790, 0.0000038147
17852, 0.0000047684
94, 0.0000047684
0, 0.0000066757
288, 0.0000054836
0, 0.0000059605
0, 0.0000038147
1423, 0.0000045300
0, 0.0000066757
1327, 0.0000035763
209, 0.0000038147
176, 0.0000059605
6333, 0.0000047684
350, 0.0000038147
205, 0.0000038147
0, 0.0000069141
3278, 0.0000040531
156, 0.0000052452
0, 0.0000054836
793, 0.0000050068
249, 0.0000047684
1055, 0.0000045300
724, 0.0000035763

PATH: ./data/ZKW/ZKW22_inst.dat
GETTING ANSWERS FROM: ./data/ZKW/ZKW22_sol.dat
21683, 0.0000061989
1227, 0.0000057220
181, 0.0000042915
242, 0.0000057220
8252, 0.0000057220
1971, 0.0000057220
225, 0.0000059605
0, 0.0000054836
653, 0.0000069141
1306, 0.0000038147
63, 0.0000054836
153852, 0.0000045300
153, 0.0000047684
0, 0.0000071526
0, 0.0000052452
1052, 0.0000038147
981, 0.0000035763
222, 0.0000050068
180, 0.0000045300
1368, 0.0000045300
0, 0.0000059605
2889, 0.0000038147
1888, 0.0000042915
0, 0.0000066757
1466, 0.0000047684
753, 0.0000069141
8482, 0.0000045300
0, 0.0000050068
181, 0.0000038147
510, 0.0000040531
166, 0.0000054836
0, 0.0000069141
744, 0.0000050068
1093, 0.0000042915
448, 0.0000047684
3336, 0.0000054836
0, 0.0000069141
213, 0.0000045300
912, 0.0000045300
3469, 0.0000038147
1021, 0.0000045300
0, 0.0000050068
258, 0.0000047684
6808, 0.0000040531
0, 0.0000045300
228, 0.0000045300
173, 0.0000054836
0, 0.0000035763
3221, 0.0000054836
528, 0.0000040531
0, 0.0000057220
0, 0.0000061989
1537, 0.0000042915
1185, 0.0000038147
0, 0.0000035763
0, 0.0000057220
0, 0.0000050068
776, 0.0000052452
824, 0.0000045300
1418, 0.0000042915
0, 0.0000059605
2104, 0.0000038147
63, 0.0000045300
102, 0.0000054836
6942, 0.0000040531
861, 0.0000052452
1200, 0.0000040531
529, 0.0000054836
136, 0.0000073910
1434, 0.0000040531
360, 0.0000061989
317, 0.0000054836
491, 0.0000042915
1117, 0.0000057220
707, 0.0000042915
1435, 0.0000061989
3980, 0.0000045300
2082, 0.0000047684
1846, 0.0000042915

PATH: ./data/ZKW/ZKW4_inst.dat
GETTING ANSWERS FROM: ./data/ZKW/ZKW4_sol.dat
78, 0.0000042915
509, 0.0000038147
615, 0.0000026226
3938, 0.0000030994
1949, 0.0000028610
635, 0.0000021458
2385, 0.0000028610
0, 0.0000033379
4442, 0.0000019073
509, 0.0000021458
7575, 0.0000030994
825, 0.0000030994
8251, 0.0000026226
1191, 0.0000023842
10836, 0.0000023842
723, 0.0000028610
3197, 0.0000021458
2145, 0.0000023842
5378, 0.0000019073
421, 0.0000028610
2818, 0.0000023842
1545, 0.0000026226
8096, 0.0000019073
480, 0.0000028610
1819, 0.0000021458
1593, 0.0000026226
5311, 0.0000026226
174433, 0.0000028610
192, 0.0000026226
1158, 0.0000019073
866, 0.0000033379
1404, 0.0000023842
1403, 0.0000019073
3214, 0.0000030994
971, 0.0000023842
2572, 0.0000023842
934, 0.0000026226
4066, 0.0000030994
1639, 0.0000030994
681, 0.0000030994
7268, 0.0000023842
567, 0.0000023842
5897, 0.0000026226
1487, 0.0000021458
427, 0.0000019073
3704, 0.0000023842
278, 0.0000026226
787, 0.0000030994
385, 0.0000026226
383, 0.0000023842
3090, 0.0000030994
774, 0.0000021458
336, 0.0000033379
15897, 0.0000021458
1629, 0.0000019073
1018, 0.0000026226
978, 0.0000026226
597, 0.0000019073
3504, 0.0000019073
169, 0.0000023842
1881, 0.0000028610
3931, 0.0000023842
2035, 0.0000021458
1509, 0.0000026226
4177, 0.0000030994
5565, 0.0000021458
1428, 0.0000023842
7063, 0.0000021458
1103, 0.0000019073
5731, 0.0000026226
377, 0.0000030994
805, 0.0000026226
1199, 0.0000023842
484, 0.0000030994
530, 0.0000023842
1055, 0.0000028610
1067, 0.0000019073
94, 0.0000026226
978, 0.0000021458
731, 0.0000030994
1307, 0.0000019073
1321, 0.0000026226
87, 0.0000023842
158, 0.0000026226
433, 0.0000021458
25714, 0.0000021458
253, 0.0000023842
553, 0.0000023842
3787, 0.0000021458
1709, 0.0000023842
506, 0.0000019073
942, 0.0000021458
3033, 0.0000023842
23, 0.0000026226
336, 0.0000033379
4797, 0.0000026226
262, 0.0000021458
98, 0.0000019073
890, 0.0000026226
626, 0.0000026226
4432, 0.0000019073
1961, 0.0000019073
1221, 0.0000019073
97, 0.0000030994
94, 0.0000021458
1565, 0.0000023842
1570, 0.0000021458
4727, 0.0000028610
204, 0.0000019073
153, 0.0000019073
4878, 0.0000021458
642, 0.0000026226
81162, 0.0000023842
1396, 0.0000030994
1829, 0.0000021458
147, 0.0000023842
4533, 0.0000021458
2433, 0.0000016689
6089, 0.0000028610
2805, 0.0000030994
495, 0.0000030994
4428, 0.0000019073
671, 0.0000019073
9556, 0.0000019073
308, 0.0000021458
0, 0.0000021458
931, 0.0000026226
1994, 0.0000021458
2144, 0.0000026226
2510, 0.0000021458
884, 0.0000030994
935, 0.0000026226
1121, 0.0000030994
2544, 0.0000023842
346, 0.0000021458
1182, 0.0000026226
1031, 0.0000028610
1317, 0.0000030994
140, 0.0000021458
1308, 0.0000023842
1174, 0.0000026226
523, 0.0000026226
1206, 0.0000021458
1481, 0.0000016689
780, 0.0000026226
1664, 0.0000021458
2035, 0.0000019073
1667, 0.0000026226
106, 0.0000023842
430, 0.0000019073
780, 0.0000026226
39, 0.0000023842
694, 0.0000030994
3445, 0.0000026226
531, 0.0000021458
2099, 0.0000021458
439, 0.0000026226
9242, 0.0000019073
173, 0.0000021458
1334, 0.0000026226
499, 0.0000026226
2599, 0.0000016689
382, 0.0000019073
1114, 0.0000028610
3869, 0.0000023842
13009, 0.0000023842
99, 0.0000026226
2526, 0.0000026226
1449, 0.0000026226
164287, 0.0000023842
1306, 0.0000026226
659, 0.0000021458
571, 0.0000021458
371, 0.0000030994
1073, 0.0000019073
555, 0.0000026226
2330, 0.0000026226
1371, 0.0000030994
423, 0.0000028610
682, 0.0000023842
498, 0.0000026226
545, 0.0000023842
879, 0.0000023842
0, 0.0000021458
0, 0.0000023842
1327, 0.0000021458
2088, 0.0000026226
257828, 0.0000021458
183, 0.0000030994
801, 0.0000026226
2832, 0.0000023842
1174, 0.0000026226
1269, 0.0000033379
1453, 0.0000019073
187, 0.0000019073
2283, 0.0000030994
1083, 0.0000023842
1722, 0.0000030994
1249, 0.0000026226
563, 0.0000026226
977, 0.0000026226
258, 0.0000019073
218, 0.0000019073
1043, 0.0000026226
3807, 0.0000021458
8742, 0.0000021458
128, 0.0000030994
2241, 0.0000026226
920, 0.0000021458
3161, 0.0000028610
806, 0.0000030994
1676, 0.0000030994
831, 0.0000028610
1515, 0.0000016689
1617, 0.0000021458
295, 0.0000026226
1645, 0.0000030994
132, 0.0000026226
14, 0.0000026226
2908, 0.0000026226
891, 0.0000026226
2345, 0.0000026226
1865, 0.0000023842
3057, 0.0000026226
341, 0.0000021458
3286, 0.0000028610
127, 0.0000028610
87, 0.0000026226
4855, 0.0000021458
1259, 0.0000028610
146, 0.0000026226
194, 0.0000026226
1791, 0.0000019073
116, 0.0000028610
7620, 0.0000019073
605, 0.0000019073
476, 0.0000030994
1729, 0.0000021458
1280, 0.0000030994
1370, 0.0000030994
1010, 0.0000026226
721, 0.0000026226
0, 0.0000021458
542, 0.0000021458
1242, 0.0000026226
868, 0.0000028610
490, 0.0000026226
112, 0.0000021458
9717, 0.0000019073
941, 0.0000030994
646, 0.0000026226
911, 0.0000030994
135, 0.0000026226
149, 0.0000021458
626, 0.0000026226
148, 0.0000026226
3838, 0.0000019073
11258, 0.0000019073
457, 0.0000026226
2007, 0.0000023842
1449, 0.0000023842
799, 0.0000026226
383, 0.0000019073
9743, 0.0000026226
1164, 0.0000019073
0, 0.0000021458
1292, 0.0000021458
517, 0.0000030994
281, 0.0000030994
2310, 0.0000030994
959, 0.0000023842
7780, 0.0000023842
15246, 0.0000019073
5672, 0.0000026226
1128, 0.0000030994
6250, 0.0000021458
2661, 0.0000042915
46, 0.0000026226
3324, 0.0000023842
0, 0.0000023842
10962, 0.0000026226
1023, 0.0000021458
6001, 0.0000028610
1248, 0.0000026226
118, 0.0000026226
2525, 0.0000030994
19064, 0.0000023842
3027, 0.0000028610
6799, 0.0000023842
1072, 0.0000028610
84, 0.0000023842
6719, 0.0000026226
121, 0.0000030994
860, 0.0000021458
22780, 0.0000021458
136, 0.0000019073
1555, 0.0000028610
2793, 0.0000023842
189, 0.0000021458
35, 0.0000023842
50, 0.0000021458
882, 0.0000023842
737, 0.0000026226
2556, 0.0000023842
0, 0.0000030994
540, 0.0000021458
649, 0.0000023842
2041, 0.0000030994
538, 0.0000023842
978, 0.0000021458
6985, 0.0000023842
0, 0.0000028610
154, 0.0000030994
1929, 0.0000023842
1014, 0.0000026226
529, 0.0000028610
48, 0.0000028610
1229, 0.0000019073
1473, 0.0000021458
612, 0.0000026226
3828, 0.0000021458
273, 0.0000023842
1954, 0.0000021458
7000, 0.0000026226
1128, 0.0000021458
142, 0.0000019073
2581, 0.0000019073
1787, 0.0000026226
67, 0.0000028610
1874, 0.0000021458
3953, 0.0000030994
1451, 0.0000023842
1818, 0.0000016689
3281, 0.0000026226
468, 0.0000019073
1352, 0.0000019073
1001, 0.0000026226
821, 0.0000028610
11267, 0.0000023842
20, 0.0000023842
1244, 0.0000028610
190, 0.0000023842
695, 0.0000019073
5779, 0.0000030994
113, 0.0000028610
771, 0.0000021458
566, 0.0000023842
396, 0.0000023842
97, 0.0000026226
2496, 0.0000023842
0, 0.0000019073
145, 0.0000028610
9006, 0.0000021458
377, 0.0000023842
0, 0.0000019073
0, 0.0000019073
206, 0.0000021458
406, 0.0000030994
0, 0.0000021458
764, 0.0000023842
3934, 0.0000023842
739, 0.0000021458
2046, 0.0000023842
780, 0.0000023842
887, 0.0000033379
867, 0.0000028610
397, 0.0000023842
380, 0.0000019073
4295, 0.0000021458
1183, 0.0000030994
2866, 0.0000023842
17003, 0.0000019073
1154, 0.0000030994
1630, 0.0000023842
2373, 0.0000030994
3069, 0.0000021458
3427, 0.0000026226
596, 0.0000026226
1226, 0.0000026226
1669, 0.0000030994
925, 0.0000026226
1196, 0.0000021458
586, 0.0000021458
447, 0.0000030994
640, 0.0000021458
1038, 0.0000030994
2631, 0.0000021458
2877, 0.0000021458
1346, 0.0000028610
1753, 0.0000030994
1533, 0.0000026226
379, 0.0000019073
107, 0.0000026226
759, 0.0000021458
350, 0.0000021458
2600, 0.0000026226
185, 0.0000023842
556, 0.0000026226
1114, 0.0000021458
50508, 0.0000026226
382, 0.0000026226
3, 0.0000026226
613, 0.0000026226
408, 0.0000019073
2652, 0.0000030994
1449, 0.0000023842
0, 0.0000021458
617, 0.0000026226
21, 0.0000030994
309, 0.0000023842
0, 0.0000023842
2147, 0.0000026226
40, 0.0000028610
568, 0.0000026226
279, 0.0000026226
129, 0.0000019073
832, 0.0000019073
2508, 0.0000035763
1252, 0.0000028610
2124, 0.0000030994
1375, 0.0000026226
1529, 0.0000026226
700, 0.0000026226
2421, 0.0000019073
549, 0.0000019073
971, 0.0000019073
1713, 0.0000026226
5754, 0.0000021458
1584, 0.0000021458
377, 0.0000026226
2108, 0.0000021458
1753, 0.0000019073
1123, 0.0000026226
1245, 0.0000026226
2252, 0.0000023842
607, 0.0000026226
847, 0.0000021458
271, 0.0000023842
7300, 0.0000016689
510, 0.0000023842
241, 0.0000026226
3618, 0.0000021458
335, 0.0000026226
392, 0.0000021458
1151, 0.0000026226
443, 0.0000026226
72, 0.0000021458
0, 0.0000030994
1744, 0.0000019073
1164, 0.0000030994
794, 0.0000028610
1254, 0.0000019073
1495, 0.0000028610
3593, 0.0000026226
1198, 0.0000019073
260, 0.0000026226
918, 0.0000019073
85, 0.0000016689
478, 0.0000019073
1381, 0.0000030994
7993, 0.0000026226
3610, 0.0000021458
490, 0.0000028610
2063, 0.0000028610
1962, 0.0000016689
952, 0.0000028610
2611, 0.0000019073
2113, 0.0000021458
116, 0.0000028610
641, 0.0000026226
3077, 0.0000019073
2175, 0.0000023842
1015, 0.0000021458
2448, 0.0000021458
236, 0.0000030994
6706, 0.0000019073
1621, 0.0000021458
2510, 0.0000021458
596, 0.0000026226
669, 0.0000023842
129, 0.0000030994
2931, 0.0000019073
685, 0.0000026226
1045, 0.0000028610
5181, 0.0000023842
371, 0.0000026226
2592, 0.0000019073
1010, 0.0000028610
1508, 0.0000019073
96, 0.0000019073
1095, 0.0000019073
580, 0.0000016689
2274, 0.0000028610
557, 0.0000026226
331, 0.0000030994
164, 0.0000026226
1225, 0.0000023842
5851, 0.0000021458
1181, 0.0000019073
1559, 0.0000028610
278, 0.0000023842
2154, 0.0000026226
469, 0.0000026226
6395, 0.0000023842
1918, 0.0000021458
1480, 0.0000023842
2865, 0.0000016689
2015, 0.0000014305
3634, 0.0000026226
20884, 0.0000028610
416, 0.0000035763
313, 0.0000042915
1744, 0.0000042915
1610, 0.0000033379
0, 0.0000033379
853, 0.0000040531
984, 0.0000030994
522, 0.0000019073
2225, 0.0000028610
264, 0.0000021458
920, 0.0000021458
5658, 0.0000021458
1015, 0.0000016689
529, 0.0000021458
219, 0.0000021458
586, 0.0000028610
312, 0.0000021458
1148, 0.0000028610
1183, 0.0000023842
2831, 0.0000023842
1324, 0.0000023842
2383, 0.0000019073
42, 0.0000023842
406, 0.0000021458
0, 0.0000023842
189, 0.0000026226
28575, 0.0000023842
24972, 0.0000016689
8566, 0.0000016689
4278, 0.0000019073
273, 0.0000019073
837, 0.0000019073
259, 0.0000016689
1642, 0.0000021458
863, 0.0000023842
394, 0.0000026226
1834, 0.0000023842
2009, 0.0000023842
105, 0.0000028610
10384, 0.0000023842
1358, 0.0000023842
42051, 0.0000023842
4873, 0.0000023842
730, 0.0000019073
2860, 0.0000019073
1491, 0.0000023842
1951, 0.0000016689
1015, 0.0000019073
363, 0.0000023842
0, 0.0000026226
126, 0.0000019073
928, 0.0000019073
1736, 0.0000021458
1048, 0.0000019073
965, 0.0000026226
1684, 0.0000016689
469, 0.0000023842
1133, 0.0000026226
3573, 0.0000019073
153, 0.0000023842
625, 0.0000028610
1461, 0.0000019073
14105, 0.0000019073
91, 0.0000021458
1087, 0.0000035763
199, 0.0000019073
111, 0.0000030994
1091, 0.0000023842
1736, 0.0000019073
41, 0.0000023842
910, 0.0000028610
122, 0.0000028610
550, 0.0000021458
6, 0.0000023842
363, 0.0000016689
1387, 0.0000026226
934, 0.0000023842
3426, 0.0000023842
371, 0.0000026226
0, 0.0000019073
1601, 0.0000028610
4211, 0.0000016689
147, 0.0000019073
206, 0.0000028610
1768, 0.0000021458
532, 0.0000023842
5944, 0.0000019073
338, 0.0000023842
121, 0.0000021458
171, 0.0000028610
144, 0.0000021458
4490, 0.0000016689
37, 0.0000026226
116, 0.0000023842
704, 0.0000023842
2160, 0.0000023842
783, 0.0000021458
2963, 0.0000021458
1785, 0.0000021458
0, 0.0000021458
0, 0.0000028610
1330, 0.0000021458
1544, 0.0000019073
868, 0.0000028610
179, 0.0000028610
1219, 0.0000023842
3375, 0.0000019073
183, 0.0000023842
1950, 0.0000023842
992, 0.0000023842
0, 0.0000023842
445, 0.0000023842
174, 0.0000023842
277, 0.0000021458
1456, 0.0000016689
1455, 0.0000021458
662, 0.0000023842
234, 0.0000023842
1239, 0.0000019073
1690, 0.0000019073
326, 0.0000019073
2042, 0.0000016689
2603, 0.0000021458
348, 0.0000023842
1073, 0.0000021458
2956, 0.0000019073
15502, 0.0000014305
34, 0.0000026226
4448, 0.0000026226
2815, 0.0000019073
4599, 0.0000023842
15219, 0.0000021458
1693, 0.0000021458
64, 0.0000021458
1074, 0.0000162125
1454, 0.0000014305
1654, 0.0000016689
16227, 0.0000016689
0, 0.0000019073
6140, 0.0000019073
967, 0.0000021458
273, 0.0000023842
4827, 0.0000019073
489, 0.0000023842
1591, 0.0000023842
1514, 0.0000016689
1090, 0.0000016689
681, 0.0000016689
3573, 0.0000021458
7918, 0.0000019073
2037, 0.0000014305
955, 0.0000014305
863, 0.0000023842
1739, 0.0000019073
290, 0.0000028610
3913, 0.0000023842
917, 0.0000023842
1093, 0.0000023842
2106, 0.0000026226
0, 0.0000021458
447, 0.0000016689
14, 0.0000021458
456, 0.0000016689
837, 0.0000023842
25, 0.0000023842
6314, 0.0000028610
1181, 0.0000023842
1771, 0.0000016689
0, 0.0000016689
812, 0.0000019073
3823, 0.0000023842
459, 0.0000019073
509, 0.0000016689
664, 0.0000023842
664, 0.0000019073
0, 0.0000026226
1773, 0.0000016689
195, 0.0000021458
3104, 0.0000019073
2430, 0.0000014305
1793, 0.0000021458
2526, 0.0000026226
411, 0.0000016689
1910, 0.0000023842
4745, 0.0000026226
186, 0.0000023842
1852, 0.0000019073
53, 0.0000019073
654, 0.0000028610
12012, 0.0000019073
1522, 0.0000016689
1761, 0.0000021458
1634, 0.0000016689
1036, 0.0000023842
105, 0.0000016689
1768, 0.0000019073
1135, 0.0000021458
792, 0.0000023842
668, 0.0000016689
0, 0.0000019073
1853, 0.0000019073
1813, 0.0000021458
16255, 0.0000021458
1159, 0.0000023842
1123, 0.0000019073
432, 0.0000026226
498, 0.0000026226
602, 0.0000159740
807, 0.0000028610
24373, 0.0000023842
593, 0.0000028610
405, 0.0000026226
2130, 0.0000030994
1021, 0.0000030994
1027, 0.0000026226
2970, 0.0000016689
120, 0.0000026226
1629, 0.0000019073
1545, 0.0000023842
2646, 0.0000019073
8493, 0.0000028610
984, 0.0000023842
1474, 0.0000023842
879, 0.0000019073
3952, 0.0000023842
1484, 0.0000023842
323, 0.0000028610
1417, 0.0000026226
429, 0.0000023842
3341, 0.0000016689
704, 0.0000021458
5836, 0.0000026226
1631, 0.0000026226
360, 0.0000016689
3042, 0.0000016689
0, 0.0000021458
777, 0.0000021458
7700, 0.0000019073
1384, 0.0000028610
520, 0.0000019073
1946, 0.0000023842
937, 0.0000026226
3961, 0.0000019073
328, 0.0000026226
447, 0.0000016689
2325, 0.0000026226
2091, 0.0000028610
4315, 0.0000016689
4595, 0.0000021458
1697, 0.0000021458
727, 0.0000028610
293, 0.0000028610
1654, 0.0000028610
475, 0.0000023842
1838, 0.0000026226
877, 0.0000026226
2803, 0.0000026226
0, 0.0000026226
154, 0.0000028610
1094, 0.0000023842
1744, 0.0000016689
592, 0.0000023842
3589, 0.0000026226
1237, 0.0000026226
1180, 0.0000028610
668, 0.0000021458
339, 0.0000023842
1819, 0.0000021458
33, 0.0000033379
927, 0.0000028610
3661, 0.0000016689
389, 0.0000026226
607, 0.0000021458
1485, 0.0000019073
2517, 0.0000021458
203, 0.0000023842
382, 0.0000026226
5513, 0.0000021458
1125, 0.0000019073
438, 0.0000021458
305, 0.0000016689
1078, 0.0000026226
1510, 0.0000019073
264, 0.0000019073
223, 0.0000028610
369, 0.0000026226
2114, 0.0000021458
2533, 0.0000026226
2497, 0.0000019073
987, 0.0000019073
454, 0.0000028610
236, 0.0000023842
228, 0.0000021458
171470, 0.0000021458
1334, 0.0000016689
150, 0.0000019073
2246, 0.0000021458
325, 0.0000019073
0, 0.0000028610
276, 0.0000028610
374, 0.0000028610
0, 0.0000028610
642, 0.0000021458
0, 0.0000021458
1748, 0.0000026226
1645, 0.0000019073
2671, 0.0000028610
4560, 0.0000019073
287, 0.0000026226
1264, 0.0000021458
1318, 0.0000021458
789, 0.0000023842
1231, 0.0000021458
1923, 0.0000021458
444, 0.0000021458
0, 0.0000016689
1485, 0.0000026226
537, 0.0000023842
3227, 0.0000028610
2717, 0.0000019073
215, 0.0000026226
141, 0.0000026226
2483, 0.0000026226
425, 0.0000019073
0, 0.0000028610
231, 0.0000023842
250, 0.0000026226
457, 0.0000026226
2924, 0.0000016689
0, 0.0000016689
613, 0.0000021458
6246, 0.0000019073
290, 0.0000019073
1056, 0.0000028610
1403, 0.0000028610
182, 0.0000016689
1002, 0.0000023842
747, 0.0000028610
907, 0.0000019073
33, 0.0000026226
1241, 0.0000030994
292, 0.0000026226
1, 0.0000026226
1634, 0.0000016689
0, 0.0000016689
527, 0.0000019073
353, 0.0000021458
2060, 0.0000023842
1449, 0.0000026226
1114, 0.0000019073
6086, 0.0000023842
175, 0.0000019073
63, 0.0000021458
839, 0.0000023842
1638, 0.0000016689
0, 0.0000021458
0, 0.0000019073
20541, 0.0000016689
21, 0.0000016689
135, 0.0000019073
815, 0.0000023842
1580, 0.0000021458
6348, 0.0000023842
1650, 0.0000016689
1285, 0.0000019073
137, 0.0000021458
1309, 0.0000023842
1489, 0.0000026226
1405, 0.0000023842
10277, 0.0000021458
2185, 0.0000026226
2586, 0.0000019073
0, 0.0000026226
1150, 0.0000019073
11291, 0.0000026226
7609, 0.0000016689
665, 0.0000021458
631, 0.0000028610
656, 0.0000016689
83, 0.0000019073
386, 0.0000023842
65, 0.0000028610
1404, 0.0000019073
4092, 0.0000016689
2405, 0.0000016689
918, 0.0000026226
1244, 0.0000028610
1800, 0.0000026226
868, 0.0000021458
332, 0.0000028610
2212, 0.0000021458
625, 0.0000021458
3507, 0.0000016689
34722, 0.0000016689
1199, 0.0000016689
6507, 0.0000021458
1546, 0.0000019073
831, 0.0000019073
1523, 0.0000016689
2896, 0.0000019073
1770, 0.0000021458
0, 0.0000028610
2472, 0.0000023842
1269, 0.0000023842
547, 0.0000019073
1630, 0.0000023842
470, 0.0000021458
1276, 0.0000021458
46, 0.0000026226
565, 0.0000023842
850, 0.0000023842
1385, 0.0000021458
842, 0.0000164509
2770, 0.0000028610
1024, 0.0000019073
145, 0.0000016689
27, 0.0000021458
217, 0.0000021458
1816, 0.0000016689
642, 0.0000019073
23006, 0.0000026226
2961, 0.0000023842
2158, 0.0000016689
512, 0.0000023842
142, 0.0000016689
3255, 0.0000026226
19, 0.0000023842
0, 0.0000016689
168, 0.0000023842
795, 0.0000023842
1138, 0.0000019073
0, 0.0000026226
1630, 0.0000028610
630, 0.0000021458
48413, 0.0000021458
141, 0.0000019073
10780, 0.0000019073
5300, 0.0000028610
48, 0.0000019073
828, 0.0000023842
880, 0.0000016689
524, 0.0000028610
843, 0.0000030994
5025, 0.0000019073

real    0m0.123s
user    0m0.063s
sys     0m0.031s

