PATH: ./data/ZKC/ZKC10_inst.dat
GETTING ANSWERS FROM: ./data/ZKC/ZKC10_sol.dat
0.0010921955
0.0006623268
0.0006902218
0.0008068085
0.0008392334
0.0009329319
0.0006766319
0.0010147095
0.0011389256
0.0007891655
0.0009918213
0.0007333755
0.0006711483
0.0007660389
0.0008232594
0.0006649494
0.0009276867
0.0007777214
0.0011005402
0.0010411739
0.0007302761
0.0008897781
0.0008912086
0.0008168221
0.0006599426
0.0007684231
0.0010919571
0.0011525154
0.0007390976
0.0007908344
0.0008244514
0.0009069443
0.0008530617
0.0007069111
0.0005993843
0.0007584095
0.0006833076
0.0008540154
0.0008664131
0.0006990433
0.0010576248
0.0008873940
0.0008373260
0.0006711483
0.0011436939
0.0009562969
0.0008368492
0.0011103153
0.0008602142
0.0011200905
0.0008635521
0.0007259846
0.0010566711
0.0009298325
0.0005464554
0.0006902218
0.0008702278
0.0008075237
0.0006647110
0.0011970997
0.0007996559
0.0006909370
0.0011565685
0.0010054111
0.0008823872
0.0008289814
0.0008230209
0.0008265972
0.0009860992
0.0005254745
0.0007936954
0.0008060932
0.0007781982
0.0009267330
0.0009987354
0.0008876324
0.0008850098
0.0010533333
0.0008838177
0.0008444786
0.0006728172
0.0007362366
0.0006747246
0.0010287762
0.0010802746
0.0007376671
0.0009174347
0.0007953644
0.0007884502
0.0007729530
0.0006766319
0.0009994507
0.0006511211
0.0008521080
0.0008387566
0.0008628368
0.0007467270
0.0008282661
0.0011544228
0.0009672642
0.0007543564
0.0007627010
0.0008904934
0.0006995201
0.0009877682
0.0009047985
0.0008723736
0.0007138252
0.0007102489
0.0010006428
0.0008664131
0.0008461475
0.0007042885
0.0008428097
0.0008018017
0.0008006096
0.0007457733
0.0010609627
0.0006523132
0.0009469986
0.0006606579
0.0009481907
0.0010621548
0.0011060238
0.0008499622
0.0008141994
0.0006341934
0.0006885529
0.0008707047
0.0009012222
0.0008885860
0.0007362366
0.0010898113
0.0006504059
0.0010018349
0.0007829666
0.0008628368
0.0010337830
0.0009574890
0.0009741783
0.0008203983
0.0007417202
0.0008528233
0.0009164810
0.0009191036
0.0008063316
0.0008614063
0.0008606911
0.0006706715
0.0006520748
0.0009481907
0.0009715557
0.0009179115
0.0007541180
0.0010704994
0.0008540154
0.0010168552
0.0011761189
0.0008149147
0.0007293224
0.0007514954
0.0009419918
0.0008139610
0.0007812977
0.0006666183
0.0007185936
0.0013964176
0.0007295609
0.0009815693
0.0009522438
0.0009312630
0.0007529259
0.0007171631
0.0006239414
0.0009608269
0.0007979870
0.0006780624
0.0007569790
0.0007433891
0.0009021759
0.0009036064
0.0006444454
0.0007245541
0.0009253025
0.0009953976
0.0008096695
0.0008993149
0.0008642673
0.0008871555
0.0008325577
0.0006990433
0.0006744862
0.0007245541
0.0008842945
0.0005025864
0.0008485317
0.0008196831
0.0007264614
0.0006692410
0.0007495880
0.0011208057
0.0009760857
0.0009050369
0.0007262230
0.0008912086
0.0006499290
0.0007722378
0.0009753704
0.0008716583
0.0007150173
0.0008897781
0.0007748604
0.0009260178
0.0007460117
0.0007278919
0.0007066727
0.0006225109
0.0006115437
0.0004942417
0.0007898808
0.0006380081
0.0007038116
0.0007789135
0.0007286072
0.0010476112
0.0009636879
0.0006556511
0.0009028912
0.0006105900
0.0008256435
0.0012269020
0.0007867813
0.0011203289
0.0009555817
0.0006422997
0.0007970333
0.0007562637
0.0007846355
0.0009386539
0.0007536411
0.0004739761
0.0006780624
0.0008339882
0.0007004738
0.0008027554
0.0008430481
0.0006604195
0.0009422302
0.0008907318
0.0009148121
0.0008676052
0.0008411407
0.0008349419
0.0006539822
0.0010035038
0.0006020069
0.0006620884
0.0007553101
0.0010101795
0.0006785393
0.0006289482
0.0007512569
0.0008380413
0.0007658005
0.0007641315
0.0006949902
0.0011451244
0.0006961823
0.0006191730
0.0007658005
0.0008878708
0.0008811951
0.0006284714
0.0010433197
0.0005927086
0.0011572838
0.0009157658
0.0008041859
0.0006754398
0.0008046627
0.0008769035
0.0009925365
0.0007429123
0.0008659363
0.0007305145
0.0007870197
0.0006682873
0.0007593632
0.0006289482
0.0007004738
0.0006716251
0.0009016991
0.0007598400
0.0007567406
0.0009062290
0.0008213520
0.0010440350
0.0006897449
0.0007855892
0.0011126995
0.0006697178
0.0007469654
0.0006399155
0.0007634163
0.0010144711
0.0007877350
0.0011608601
0.0008842945
0.0006697178
0.0011160374
0.0010585785
0.0006098747
0.0003499985
0.0008091927
0.0007820129
0.0007231236
0.0007588863
0.0007965565
0.0006458759
0.0007593632
0.0008091927
0.0008203983
0.0007998943
0.0006408691
0.0008916855
0.0009405613
0.0009868145
0.0006585121
0.0007843971
0.0009739399
0.0008394718
0.0006346703
0.0008316040
0.0007877350
0.0009567738
0.0009806156
0.0006349087
0.0003535748
0.0008108616
0.0006999969
0.0009753704
0.0008342266
0.0009398460
0.0008776188
0.0007545948
0.0007486343
0.0008094311
0.0009641647
0.0008065701
0.0008323193
0.0008556843
0.0008282661
0.0005388260
0.0006194115
0.0008304119
0.0009570122
0.0007200241
0.0007803440
0.0008249283
0.0007131100
0.0008621216
0.0006716251
0.0007655621
0.0007057190
0.0009565353
0.0005300045
0.0006132126
0.0007328987
0.0007786751
0.0008842945
0.0008399487
0.0006139278
0.0008401871
0.0007357597
0.0007460117
0.0007989407
0.0006802082
0.0009596348
0.0007038116
0.0006735325
0.0006685257
0.0007636547
0.0006718636
0.0007717609
0.0006718636
0.0009696484
0.0008544922
0.0009388924
0.0007348061
0.0007839203
0.0010263920
0.0011296272
0.0006740093
0.0006473064
0.0006155968
0.0007457733
0.0009896755
0.0006785393
0.0007567406
0.0009400845
0.0010263920
0.0006964207
0.0006885529
0.0007271767
0.0007803440
0.0011160374
0.0005235672
0.0009746552
0.0007264614
0.0006327629
0.0006310940
0.0007503033
0.0007627010
0.0007362366
0.0007381439
0.0006656647
0.0008008480
0.0006225109
0.0009987354
0.0007369518
0.0008571148
0.0006968975
0.0006785393
0.0009083748
0.0006711483
0.0006961823
0.0009479523
0.0008237362
0.0007772446
0.0006461143
0.0010330677
0.0008873940
0.0009057522
0.0009269714
0.0008513927
0.0008118153
0.0007326603
0.0007886887
0.0006361008
0.0006356239
0.0006122589
0.0006756783
0.0006399155
0.0009434223
0.0010221004
0.0006582737
0.0009484291
0.0009193420
0.0008435249
0.0007719994
0.0007112026
0.0008594990
0.0006377697
0.0010199547
0.0009038448
0.0009367466
0.0006961823
0.0007994175
0.0006663799
0.0007543564
0.0004467964
0.0006642342
0.0006010532
0.0007941723
0.0011518002
0.0010089874
0.0007917881
0.0008933544
0.0006923676
0.0006806850
0.0007359982
0.0006155968
0.0008890629
0.0015094280
0.0008506775
0.0006258488
0.0008711815
0.0009162426
0.0009081364
0.0009303093
0.0008959770
0.0008447170
0.0008931160
0.0006074905
0.0009207726
0.0007734299
0.0007660389
0.0008637905
0.0007460117
0.0007562637
0.0003407001
0.0008437634
0.0006976128
0.0009529591
0.0008618832
0.0010771751
0.0007646084
0.0007133484
0.0007495880
0.0007476807

PATH: ./data/ZKC/ZKC15_inst.dat
GETTING ANSWERS FROM: ./data/ZKC/ZKC15_sol.dat
0.0124399662
0.0114543438
0.0053944588
0.0127365589
0.0106515884
0.0056159496
0.0117282867
0.0097408295
0.0120470524
0.0115015507
0.0107846260
0.0077357292
0.0113239288
0.0059990883
0.0089592934
0.0118820667
0.0069727898
0.0119707584
0.0131573677
0.0107259750
0.0105381012
0.0086786747
0.0151746273
0.0109815598
0.0114042759
0.0124018192
0.0137252808
0.0145227909
0.0191342831
0.0109608173
0.0115392208
0.0111196041
0.0110988617
0.0120193958
0.0106256008
0.0109257698
0.0057880878
0.0114958286
0.0122673512
0.0107607841
0.0132098198
0.0138881207
0.0090503693
0.0129303932
0.0105850697
0.0149605274
0.0113952160
0.0059108734
0.0118584633
0.0146815777
0.0101456642
0.0124936104
0.0106360912
0.0123250484
0.0075104237
0.0108094215
0.0115475655
0.0122635365
0.0064253807
0.0074918270
0.0104069710
0.0113568306
0.0101411343
0.0121824741
0.0107238293
0.0104672909
0.0132029057
0.0072820187
0.0107886791
0.0115630627
0.0103578568
0.0111050606
0.0099194050
0.0178902149
0.0105624199
0.0080239773
0.0104095936
0.0055565834
0.0112426281
0.0058777332
0.0072872639
0.0114398003
0.0108544827
0.0183067322
0.0105388165
0.0115714073
0.0083491802
0.0124354362
0.0103106499
0.0116350651
0.0112602711
0.0118422508
0.0117335320
0.0073635578
0.0083281994
0.0174589157
0.0110442638
0.0102133751
0.0108335018
0.0190224648
0.0079865456
0.0110349655
0.0112490654
0.0101308823
0.0114068985
0.0112271309
0.0111923218
0.0125741959
0.0099532604
0.0115554333
0.0104444027
0.0111072063
0.0109755993
0.0107851028
0.0105223656
0.0119051933
0.0070180893
0.0117042065
0.0120849609
0.0065410137
0.0158631802
0.0106689930
0.0118300915
0.0106611252
0.0122880936
0.0078854561
0.0075850487
0.0130233765
0.0101480484
0.0135190487
0.0097968578
0.0121705532
0.0123605728
0.0087053776
0.0074436665
0.0115623474
0.0092372894
0.0095286369
0.0129828453
0.0109028816
0.0113177299
0.0118172169
0.0180549622
0.0214011669
0.0116434097
0.0088636875
0.0122823715
0.0104999542
0.0102608204
0.0121753216
0.0061266422
0.0118699074
0.0055468082
0.0108871460
0.0091030598
0.0127990246
0.0113189220
0.0095243454
0.0223250389
0.0113930702
0.0088894367
0.0105795860
0.0127475262
0.0081975460
0.0103056431
0.0112416744
0.0120277405
0.0125477314
0.0116908550
0.0116991997
0.0120687485
0.0079052448
0.0128557682
0.0060968399
0.0112543106
0.0116753578
0.0106985569
0.0169901848
0.0113143921
0.0127134323
0.0125362873
0.0118782520
0.0074603558
0.0120356083
0.0110816956
0.0113060474
0.0113554001
0.0192086697
0.0116713047
0.0107626915
0.0129745007
0.0109217167
0.0117878914
0.0120928288
0.0078122616
0.0077664852
0.0124683380
0.0108921528
0.0123176575
0.0130937099
0.0120642185
0.0101306438
0.0128977299
0.0119867325
0.0112690926
0.0098516941
0.0106668472
0.0109360218
0.0093512535
0.0089354515
0.0161607265
0.0110530853
0.0202212334
0.0134239197
0.0139470100
0.0101649761
0.0120418072
0.0129330158
0.0088889599
0.0089626312
0.0072560310
0.0080921650
0.0128810406
0.0117342472
0.0094730854
0.0062131882
0.0154616833
0.0111093521
0.0115370750
0.0157558918
0.0114853382
0.0120377541
0.0109794140
0.0102601051
0.0068607330
0.0105268955
0.0114841461
0.0097277164
0.0110480785
0.0084731579
0.0105535984
0.0141735077
0.0059878826
0.0107336044
0.0110454559
0.0069282055
0.0108346939
0.0110514164
0.0104589462
0.0107355118
0.0120890141
0.0062086582
0.0068049431
0.0108160973
0.0064876080
0.0141468048
0.0068168640
0.0135405064
0.0107786655
0.0119025707
0.0196347237
0.0103771687
0.0112931728
0.0121173859
0.0103743076
0.0123429298
0.0106801987
0.0214819908
0.0103623867
0.0117380619
0.0131313801
0.0123519897
0.0157108307
0.0107989311
0.0117123127
0.0108165741
0.0094213486
0.0109910965
0.0112709999
0.0121991634
0.0122151375
0.0111963749
0.0058221817
0.0062165260
0.0104372501
0.0114588737
0.0115303993
0.0114243031
0.0227046013
0.0101151466
0.0115935802
0.0087757111
0.0115704536
0.0147593021
0.0117728710
0.0111989975
0.0109739304
0.0067815781
0.0082855225
0.0114047527
0.0118176937
0.0126900673
0.0132617950
0.0060060024
0.0119876862
0.0124948025
0.0126378536
0.0096802711
0.0097379684
0.0112051964
0.0106012821
0.0112285614
0.0105166435
0.0117788315
0.0120644569
0.0115282536
0.0078721046
0.0087954998
0.0123836994
0.0195164680
0.0186669827
0.0216972828
0.0116648674
0.0106341839
0.0108604431
0.0118291378
0.0124833584
0.0086774826
0.0117001534
0.0116109848
0.0152592659
0.0115897655
0.0113961697
0.0119242668
0.0140030384
0.0109844208
0.0107939243
0.0124158859
0.0057084560
0.0120677948
0.0113103390
0.0107796192
0.0107619762
0.0129837990
0.0120408535
0.0117385387
0.0134451389
0.0115113258
0.0104758739
0.0101203918
0.0115134716
0.0092203617
0.0114226341
0.0116620064
0.0102417469
0.0147378445
0.0086305141
0.0102055073
0.0107955933
0.0109803677
0.0113370419
0.0119569302
0.0114667416
0.0125350952
0.0074791908
0.0108282566
0.0054039955
0.0171740055
0.0106158257
0.0105021000
0.0132429600
0.0113914013
0.0123267174
0.0120487213
0.0113966465
0.0143835545
0.0124955177
0.0152130127
0.0141317844
0.0085144043
0.0079112053
0.0111277103
0.0117847919
0.0054709911
0.0122756958
0.0108110905
0.0128500462
0.0112791061
0.0106081963
0.0137445927
0.0116260052
0.0104300976
0.0115070343
0.0120701790
0.0104563236
0.0127828121
0.0113937855
0.0104572773
0.0095367432
0.0125050545
0.0108563900
0.0124123096
0.0105001926
0.0140728951
0.0117623806
0.0119063854
0.0086743832
0.0108983517
0.0089418888
0.0106055737
0.0106914043
0.0094287395
0.0091547966
0.0103170872
0.0117549896
0.0056121349
0.0100018978
0.0103878975
0.0107927322
0.0094349384
0.0117275715
0.0123615265
0.0226330757
0.0104477406
0.0111503601
0.0066158772
0.0126724243
0.0109820366
0.0111417770
0.0073575974
0.0106391907
0.0111768246
0.0126640797
0.0070626736
0.0121459961
0.0061812401
0.0101134777
0.0124580860
0.0119180679
0.0152258873
0.0162029266
0.0104894638
0.0120882988
0.0134682655
0.0169343948
0.0145759583
0.0135102272
0.0104091167
0.0143389702
0.0066461563
0.0128445625
0.0123343468
0.0115530491
0.0192105770
0.0058627129
0.0198969841
0.0121169090
0.0171570778
0.0132031441
0.0173392296
0.0130882263
0.0140924454
0.0127940178
0.0112071037
0.0127465725
0.0131008625
0.0121045113
0.0125925541
0.0059342384
0.0111243725
0.0121939182
0.0114257336
0.0108664036
0.0114207268
0.0143625736
0.0118908882
0.0116534233
0.0120749474
0.0109963417
0.0106227398
0.0118465424
0.0112686157
0.0118801594
0.0123467445
0.0123383999
0.0109484196
0.0130407810
0.0119376183
0.0110423565
0.0194728374
0.0105423927
0.0129981041
0.0108072758
0.0072894096
0.0079572201
0.0122778416
0.0120542049
0.0196847916
0.0108902454
0.0121512413

PATH: ./data/ZKC/ZKC20_inst.dat
GETTING ANSWERS FROM: ./data/ZKC/ZKC20_sol.dat
0.3590612411
0.1707999706
0.3081290722
0.3148887157
0.3315894604
0.1326625347
0.3048908710
0.3152732849
0.1677682400
0.1900742054
0.1404864788
0.1390111446
0.1616728306
0.2092106342
0.3426182270
0.2752463818
0.3302102089
0.1677534580
0.3483762741
0.3311409950
0.3459558487
0.4242227077
0.3564407825
0.3319220543
0.3255603313
0.2129168510
0.3044874668
0.1459245682
0.2343273163
0.3332407475
0.3459684849
0.3542449474
0.2478938103
0.3079488277
0.3463780880
0.3361501694
0.1535072327
0.1983470917
0.3424551487
0.2867722511
0.1612508297
0.1381752491
0.3104074001
0.3278586864
0.3190696239
0.1659445763
0.3178343773
0.1622140408
0.2933595181
0.2838127613
0.3324589729
0.3077139854
0.1539149284
0.1797943115
0.1793737411
0.3011772633
0.3799664974
0.2424798012
0.2069606781
0.3669064045
0.1808156967
0.1649026871
0.3322811127
0.7844126225
0.3527052402
0.2787339687
0.2965230942
0.1466670036
0.1445848942
0.2778561115
0.3141505718
0.3279979229
0.3107857704
0.2052171230
0.2785699368
0.4460406303
0.1921939850
0.3421833515
0.3353204727
0.2026369572
0.3160257339
0.2042992115
0.3321378231
0.2982428074
0.1275851727
0.4107058048
0.3366067410
0.3187289238
0.1459937096
0.1555776596
0.2938499451
0.3000900745
0.3562052250
0.3981659412
0.3500714302
0.2510662079
0.1843264103
0.2956476212
0.3472762108
0.1468164921
0.1624696255
0.2490122318
0.1592128277
0.1416509151
0.1411910057
0.1331107616
0.2991981506
0.1915395260
0.5780589581
0.3521039486
0.2830908298
0.3610901833
0.2255194187
0.3560922146
0.1797933578
0.4579310417
0.2464952469
0.1555168629
0.4171807766
0.1480789185
0.7450227737
0.3342242241
0.2217214108
0.2782604694
0.2134771347
0.3453595638
0.3059456348
0.3468732834
0.3796129227
0.3321466446
0.1373357773
0.3328633308
0.1506400108
0.3602516651
0.3516466618
0.2766485214
0.2859022617
0.1563546658
0.2939262390
0.3388092518
0.1457655430
0.3114347458
0.3546841145
0.4426620007
0.2860333920
0.1927869320
0.3101058006
0.1339285374
0.2249915600
0.1774580479
0.1400434971
0.2956612110
0.3405606747
0.1624572277
0.3489384651
0.3047468662
0.2823181152
0.3109571934
0.1669120789
0.1773085594
0.7921416759
0.8000159264
0.3664152622
0.1595757008
0.3426754475
0.1916081905
0.1494221687
0.1428849697
0.1503033638
0.3315584660
0.1657817364
0.2184557915
0.3786423206
0.2579960823
0.3554499149
0.5990622044
0.1500349045
0.1687955856
0.1598541737
0.3188722134
0.2465009689
0.3876473904
0.2693603039
0.3596637249
0.3663554192
0.2687025070
0.2957711220
0.1758732796
0.3794281483
0.2670776844
0.1757662296
0.1589534283
0.3655109406
0.3761320114
0.4114189148
0.1484527588
0.5238509178
0.3528199196
0.4647459984
0.3780355453
0.3599286079
0.2868118286
0.3672916889
0.2241733074
0.1792581081
0.2938389778
0.3912718296
0.3848071098
0.6887609959
0.2198021412
0.1435992718
0.3524477482
0.3617002964
0.3246476650
0.3650529385
0.1512920856
0.3718843460
0.3546941280
0.2793343067
0.3885459900
0.2533991337
0.2992525101
0.1493105888
0.3919489384
0.3048653603
0.3724110126
0.3309929371
0.3154969215
0.2378063202
0.3975713253
0.3803882599
0.1543536186
0.3571584225
0.1442303658
0.1749527454
0.3404059410
0.3253200054
0.1869959831
0.1668944359
0.3644886017
0.2093422413
0.1448037624
0.3710277081
1.1498265266
0.3917057514
0.3666164875
0.2097885609
0.3529520035
0.3121170998
0.1835286617
0.3771123886
0.1527392864
0.3888778687
0.3921775818
0.3252751827
0.3975162506
0.3353569508
0.2750132084
0.1687266827
0.3636026382
0.1558916569
0.4006357193
0.3743503094
0.1700332165
0.3535318375
0.4567589760
0.1517455578
0.2842979431
0.3165721893
0.2555313110
0.3776650429
0.1579074860
0.3588860035
0.3537218571
0.3522794247
0.3674693108
0.3255951405
0.1802127361
0.3325085640
0.3899259567
0.4181199074
0.3574585915
0.2730348110
0.4157786369
0.3280568123
0.3531424999
0.3727116585
0.7069489956
0.6968917847
0.2747468948
0.3639800549
0.4231688976
0.1521141529
0.3412580490
0.3310935497
0.3159563541
0.3292109966
0.3479535580
0.3732683659
0.3177123070
0.3651742935
0.3857402802
0.3493561745
0.1660983562
0.4622943401
0.3501372337
0.5079007149
0.4469826221
0.4729559422
0.2016379833
0.3849110603
0.3778283596
0.4483840466
0.4332797527
0.1727676392
0.1744828224
0.2061955929
0.3926315308
0.3816332817
0.3362314701
0.3975491524
0.8307032585
0.2972574234
0.3189253807
0.3169093132
0.2190194130
0.3757908344
0.3579802513
0.3535244465
0.3485195637
0.1507098675
0.1512010098
0.1593887806
0.3886275291
0.3723008633
0.3592119217
0.3654220104
0.3508918285
0.1561043262
0.4740924835
0.9947006702
0.3761591911
0.2776250839
0.3820421696
0.2962288857
0.4114806652
0.2345480919
0.4564509392
0.3790481091
0.4340991974
0.3651380539
0.3942062855
0.1849737167
0.5135965347
0.1953990459
0.3772830963
0.3284227848
0.3596224785
0.2218592167
0.3722467422
0.3599789143
1.0125963688
0.3789591789
0.3830714226
0.2456932068
0.1639111042
0.3596169949
0.3825228214
0.5679352283
0.3684394360
0.3182082176
0.2333438396
0.4511232376
0.3591074944
0.2353684902
0.1467249393
0.1596543789
0.3756585121
0.4047658443
0.4060389996
0.2673566341
0.3896734715
0.3970787525
0.3694014549
0.1459372044
0.3600320816
0.1441457272
0.1386983395
0.1487567425
0.3726050854
0.1639559269
0.3351194859
0.3754956722
0.1503865719
0.3010864258
0.1712677479
0.3454184532
0.2248361111
0.3609130383
0.3716619015
0.3494529724
0.1455993652
0.3200371265
0.3493440151
0.3586361408
0.3660478592
0.3432550430
0.3932838440
0.3770291805
0.3867156506
0.3765149117
0.3945477009
0.3865659237
0.7055380344
0.3722977638
0.2647035122
0.1956791878
0.3025960922
0.5499925613
0.2929072380
0.5002305508
0.2344760895
0.1418664455
0.3670141697
0.1837136745
0.2641079426
0.2376768589
0.3551199436
0.1669239998
0.3446171284
0.4377412796
0.2799696922
0.3690710068
0.2637884617
0.2551417351
0.1532492638
0.1678926945
0.3332948685
0.1834344864
0.3633093834
0.5845079422
0.3236243725
0.3052296638
1.0307369232
0.3760499954
0.4014039040
0.3604853153
0.3588120937
0.3305306435
0.1420669556
0.1514832973
0.2031855583
0.1645138264
0.8958077431
0.1541295052
0.2201418877
0.1779055595
0.3630831242
0.2738096714
0.3378305435
0.3481512070
0.3638896942
0.3229072094
0.2998414040
0.1627330780
0.3596365452
0.1582667828
0.3781309128
0.1656351089
0.2670819759
0.3594267368
0.1838774681
0.3605461121
0.3625681400
0.3655374050
0.3975265026
0.4412035942
0.3200936317
0.1603977680
0.7173202038
0.1876149178
0.3333616257
0.0749313831
0.1560873985
0.1489057541
1.0563757420
0.3461966515
0.2716746330
0.4075989723
0.2499117851
0.3523650169
0.2897973061
0.1434161663
0.2275435925
0.3351550102
0.1978125572
0.3824179173
0.1639208794
0.2103142738
0.1578044891

PATH: ./data/ZKC/ZKC22_inst.dat
GETTING ANSWERS FROM: ./data/ZKC/ZKC22_sol.dat
4.6689777374
1.2569832802
3.2325232029
1.5736768246
1.4847359657
0.6475219727
1.7675061226
1.1505813599
2.0838413239
1.1904106140
1.2806937695
1.4118623734
1.2919237614
3.9430315495
1.2834317684
1.8129062653
2.6799626350
1.2964196205
1.4683978558
4.2497134209
2.0822734833
1.3240847588
1.2884311676
1.2305052280
2.8091387749
1.1591606140
0.9526722431
3.8840582371
4.0299615860
1.2027769089
1.3149383068
1.7661392689
4.0954167843
1.3047420979
3.9277679920
3.9052264690
3.6670608521
1.0910727978
1.3423960209
3.4107420444
1.7246990204
1.1675789356
2.7069776058
3.2991349697
3.5024201870
1.1939139366
3.4169156551
1.3898549080
2.1427338123
3.7437121868
0.7617118359
2.0119872093
0.5591320992
0.9668092728
1.2891857624
1.2064619064
1.9020237923
2.2365801334
1.6549377441
1.5997910500
1.3095903397
2.8736534119
1.2549932003
1.3020551205
1.2126216888
1.7117519379
3.2457964420
1.1632966995
1.9794938564
1.9735267162
1.6494765282
3.8778100014
1.2735142708
2.1816639900
2.7442152500
2.1497676373
0.7712359428
1.2292141914
2.3248372078
1.4543423653
1.2764649391
1.3096101284
2.1144599915
1.1963243484
2.4336671829
3.3560376167
1.3466591835
1.2725365162
3.9238784313
1.1691606045
1.4458951950
1.2056367397
1.2434494495
1.1916890144
1.4635083675
1.3589978218
1.3390796185
1.6418619156
1.2146568298
4.9402849674
1.3759012222
3.2772254944
1.1465539932
1.2545421124
0.5080704689
2.3236813545
1.2981257439
1.2466750145
3.8315677643
0.4716384411
3.4075686932
1.3618948460
1.2121047974
0.4932582378
1.2177834511
2.8344233036
2.1318285465
1.2294659615
3.9801485538
1.0923004150
2.0053708553
1.3210864067
2.1726026535
3.5989148617
1.3186316490
1.1771163940
1.8449096680
2.9232904911
2.6890804768
1.2348427773
6.0056359768
1.2768018246
1.2301676273
1.2635529041
1.1508591175
0.7629370689
1.1893923283
1.3349046707
3.5033750534
1.2382814884
1.3202550411
1.6871492863
1.2527806759
0.8909068108
1.2018821239
1.1987128258
4.3884489536
4.1732361317
1.2130966187
1.1056938171
1.2401812077
1.3873217106
1.1125311852
1.6363401413
1.2838392258
1.4125165939
0.4010069370
3.9374628067
1.4245247841
3.8272724152
3.4113578796
1.3116745949
1.2145655155
1.1938481331
1.2632672787
3.5220994949
1.2473394871
1.9413738251
2.5899727345
1.2421998978
2.1103358269
1.0712728500
2.1585536003
1.2362341881
1.3632395267
0.7132253647
1.9721310139
3.9690966606
1.1635913849
3.8298022747
3.1720726490
4.1278655529
3.1685969830
2.0748934746
3.7299151421
1.2392992973
2.7585816383
0.8712718487
3.3215239048
3.7128105164
3.8429465294
2.8125917912
1.9388647079
1.7282750607
1.1029987335
1.2819025517
1.3593933582
1.8904533386
1.2885789871
2.1280124187
4.4971508980
1.2321269512
1.1069321632
2.8700296879
1.4382727146
1.2728049755
1.6233294010
1.2484056950
1.2295608521
1.3257963657
2.5291149616
1.2058763504
2.4455893040
2.4973220825
1.3339195251
1.2802042961
1.2502572536
1.1572425365
1.2415170670
1.7657840252
1.2660052776
3.3138582706
4.2620880604
9.4278514385
1.2373178005
1.6943683624
1.8478605747
1.4188930988
3.2962961197
3.2825174332
3.6440176964
3.9784741402
1.2515506744
1.3399899006
1.1873352528
1.0098977089
2.4277191162
1.7512845993
3.3635733128
1.4425032139
1.4495651722
1.2479763031
1.2717127800
1.1203129292
1.6294791698
1.6182291508
1.3216722012
2.2262806892
1.2529916763
1.4367198944
1.4520914555
3.1381568909
1.1988937855
1.3324615955
1.0998816490
3.7331948280
4.3578910828
1.2164537907
2.4003303051
1.2842104435
1.6119709015
3.4384503365
4.1863305569
3.5382637978
1.0920200348
1.2603960037
3.8132808208
1.3802077770
1.8550832272
1.4007704258
1.2071006298
1.6121473312
2.9452285767
0.5910983086
1.2138633728
4.4403421879
1.3803620338
1.3253993988
3.5394909382
1.4588334560
8.1267223358
4.0539147854
1.4824030399
1.2543382645
1.4597012997
1.2903957367
1.1318037510
1.4245684147
1.0248870850
1.2380468845
3.5080747604
2.0406358242
2.4819033146
4.5764105320
1.9568524361
1.1001322269
1.9560194016
1.5402259827
1.1675331593
1.6223053932
1.9727432728
1.2469813824
0.4143414497
1.2932462692
4.3422198296
1.3227252960
1.2036156654
4.1524040699
0.4063165188
1.2518768311
1.4159867764
1.7701377869
1.1432831287
2.9294342995
1.2725913525
2.2719242573
1.6237795353
3.0770843029
4.1354832649
3.9101874828
3.6573834419
1.1666755676
4.0290007591
1.2333292961
1.4294574261
1.2431015968
3.8164718151
3.9861614704
2.2823834419
4.1793134212
1.8530738354
3.7343738079
1.2966938019
0.6984684467
2.4470946789
1.9736137390
2.5989995003
2.9157938957
1.4011933804
1.4248876572
4.8999800682
1.2739815712
1.0324485302
0.5465764999
3.8299212456
2.1179704666
3.2941153049
1.0796093941
1.3563063145
1.2430582047
1.0750439167
1.1795210838
1.3064095974
1.2195074558
1.1901645660
1.2509531975
1.2270574570
1.1642782688
3.4354453087
1.1654744148
0.9114880562
0.9435071945
2.0859251022
1.5387971401
2.8041486740
1.1439719200
2.5464494228
1.2588160038
2.4087312222
1.2689647675
3.9833836555
2.9007124901
1.5526647568
1.2548675537
3.8521554470
0.9623024464
1.7786853313
5.3068671227
3.7637298107
1.3245396614
1.5073945522
3.7906839848
4.8987283707
3.5629496574
4.9074063301
1.2488136292
4.2319517136
1.5703654289
1.4540767670
2.0304186344
2.1865181923
0.7772252560
3.4725475311
4.0224418640
1.4376497269
1.2022814751
1.1364042759
1.2913420200
0.5195932388
3.6772985458
1.2744255066
2.6813714504
3.5242898464
1.2171750069
2.1333045959
1.5764238834
3.5781459808
1.3253419399
1.4407165051
1.7681434155
1.3784081936
1.2619106770
0.4800667763
5.3575775623
2.2874288559
0.4321348667
0.6357963085
2.9136359692
1.4034101963
1.3898000717
1.4049539566
4.3540201187
1.2208919525
2.6361837387
1.1838064194
1.6708214283
1.6702787876
1.5951981544
2.8154768944
3.4183406830
1.2469789982
3.2454280853
2.9279265404
3.5101900101
4.0817325115
1.6911423206
1.6944684982
1.6660070419
3.8355698586
1.7580537796
0.5510437489
1.5122659206
3.5696949959
4.9842751026
1.3217744827
1.2894828320
3.1498045921
1.5122847557
3.6877348423
1.4719908237
1.4095721245
0.9256005287
1.2370111942
1.4556770325
0.8902146816
1.7091603279
1.4544553757
4.6182665825
4.5221121311
1.2012751102
4.5131266117
1.3909614086
1.1415352821
1.2382607460
0.6504266262
5.0261886120
1.3021624088
1.6042039394
1.6182150841
1.6707985401
2.5738525391
1.5070166588
2.1792521477
1.3223378658
2.0103797913
4.0402197838
0.5287621021
1.1699900627
1.4365179539
1.7855658531
1.4934804440
0.7973248959
1.3457334042
1.5686666965
1.2741572857
4.1906924248
1.0870428085
1.3277795315
2.1689085960
1.3625686169
3.7487947941
0.4654319286
0.5600457191
1.7265105247
1.6127958298
2.3216240406
1.3428020477
1.6212091446
1.9528431892
1.9732813835

PATH: ./data/ZKC/ZKC4_inst.dat
GETTING ANSWERS FROM: ./data/ZKC/ZKC4_sol.dat
0.0000550747
0.0000467300
0.0000395775
0.0000393391
0.0000431538
0.0000431538
0.0000472069
0.0000350475
0.0000412464
0.0000362396
0.0000398159
0.0000419617
0.0000362396
0.0000376701
0.0000388622
0.0000419617
0.0000314713
0.0000395775
0.0000438690
0.0000348091
0.0000376701
0.0000324249
0.0000448227
0.0000438690
0.0000417233
0.0000443459
0.0000329018
0.0000414848
0.0000345707
0.0000429153
0.0000398159
0.0000410080
0.0000362396
0.0000376701
0.0000426769
0.0000417233
0.0000391006
0.0000314713
0.0000412464
0.0000288486
0.0000343323
0.0000414848
0.0000407696
0.0000460148
0.0000329018
0.0000383854
0.0000321865
0.0000419617
0.0000438690
0.0000877380
0.0000452995
0.0000383854
0.0000452995
0.0000448227
0.0000455379
0.0000414848
0.0000314713
0.0000379086
0.0000431538
0.0000429153
0.0000422001
0.0000419617
0.0000422001
0.0000343323
0.0000345707
0.0000462532
0.0000429153
0.0000336170
0.0000324249
0.0000426769
0.0000352859
0.0000431538
0.0000321865
0.0000338554
0.0000445843
0.0000455379
0.0000445843
0.0000352859
0.0000348091
0.0000348091
0.0000438690
0.0000343323
0.0000345707
0.0000388622
0.0000307560
0.0000407696
0.0000345707
0.0000400543
0.0000433922
0.0000429153
0.0000412464
0.0000422001
0.0000324249
0.0000360012
0.0000386238
0.0000395775
0.0000360012
0.0000345707
0.0000395775
0.0000336170
0.0000448227
0.0000426769
0.0000355244
0.0000340939
0.0000345707
0.0000360012
0.0000288486
0.0000426769
0.0000314713
0.0000424385
0.0000414848
0.0000345707
0.0000388622
0.0000412464
0.0000376701
0.0000338554
0.0000457764
0.0000371933
0.0000445843
0.0000438690
0.0000433922
0.0000402927
0.0000436306
0.0000438690
0.0000324249
0.0000379086
0.0000395775
0.0000305176
0.0000374317
0.0000348091
0.0000402927
0.0000343323
0.0000417233
0.0000391006
0.0000348091
0.0000448227
0.0000431538
0.0000386238
0.0000374317
0.0000388622
0.0000445843
0.0000371933
0.0000452995
0.0000419617
0.0000288486
0.0000395775
0.0000345707
0.0000307560
0.0000371933
0.0000367165
0.0000371933
0.0000438690
0.0000441074
0.0000431538
0.0000286102
0.0000426769
0.0000345707
0.0000431538
0.0000319481
0.0000338554
0.0000352859
0.0000455379
0.0000307560
0.0000383854
0.0000422001
0.0000305176
0.0000281334
0.0000436306
0.0000407696
0.0000281334
0.0000450611
0.0000414848
0.0000281334
0.0000422001
0.0000441074
0.0000429153
0.0000419617
0.0000360012
0.0000319481
0.0000307560
0.0000412464
0.0000407696
0.0000398159
0.0000383854
0.0000445843
0.0000381470
0.0000438690
0.0000348091
0.0000283718
0.0000438690
0.0000419617
0.0000419617
0.0000393391
0.0000336170
0.0000348091
0.0000417233
0.0000410080
0.0000317097
0.0000348091
0.0000455379
0.0000417233
0.0000393391
0.0000348091
0.0000452995
0.0000422001
0.0000348091
0.0000357628
0.0000307560
0.0000424385
0.0000271797
0.0000438690
0.0000350475
0.0000417233
0.0000414848
0.0000431538
0.0000307560
0.0000426769
0.0000398159
0.0000321865
0.0000381470
0.0000386238
0.0000369549
0.0000302792
0.0000314713
0.0000436306
0.0000424385
0.0000424385
0.0000412464
0.0000326633
0.0000302792
0.0000405312
0.0000407696
0.0000438690
0.0000329018
0.0000305176
0.0000350475
0.0000362396
0.0000326633
0.0000426769
0.0000381470
0.0000452995
0.0000438690
0.0000431538
0.0000360012
0.0000436306
0.0000448227
0.0000307560
0.0000445843
0.0000450611
0.0000367165
0.0000417233
0.0000379086
0.0000398159
0.0000355244
0.0000309944
0.0000455379
0.0000426769
0.0000457764
0.0000348091
0.0000383854
0.0000419617
0.0000412464
0.0000460148
0.0000288486
0.0000321865
0.0000410080
0.0000426769
0.0000379086
0.0000336170
0.0000326633
0.0000422001
0.0000410080
0.0000288486
0.0000281334
0.0000386238
0.0000364780
0.0000438690
0.0000398159
0.0000448227
0.0000360012
0.0000281334
0.0000448227
0.0000376701
0.0000438690
0.0000357628
0.0000431538
0.0000362396
0.0000381470
0.0000369549
0.0000410080
0.0000443459
0.0000383854
0.0000286102
0.0000379086
0.0000448227
0.0000424385
0.0000424385
0.0000340939
0.0000419617
0.0000383854
0.0000350475
0.0000431538
0.0000343323
0.0000433922
0.0000379086
0.0000417233
0.0000426769
0.0000324249
0.0000426769
0.0000326633
0.0000281334
0.0000436306
0.0000307560
0.0000352859
0.0000340939
0.0000417233
0.0000283718
0.0000402927
0.0000436306
0.0000357628
0.0000443459
0.0000431538
0.0000433922
0.0000309944
0.0000321865
0.0000424385
0.0000309944
0.0000379086
0.0000424385
0.0000309944
0.0000567436
0.0000367165
0.0000340939
0.0000674725
0.0000641346
0.0000498295
0.0000457764
0.0000443459
0.0000336170
0.0000331402
0.0000438690
0.0000362396
0.0000438690
0.0000319481
0.0000326633
0.0000438690
0.0000379086
0.0000452995
0.0000443459
0.0000350475
0.0000443459
0.0000376701
0.0000302792
0.0000429153
0.0000417233
0.0000438690
0.0000419617
0.0000348091
0.0000350475
0.0000352859
0.0000276566
0.0000379086
0.0000402927
0.0000271797
0.0000443459
0.0000264645
0.0000460148
0.0000319481
0.0000343323
0.0000422001
0.0000326633
0.0000450611
0.0000324249
0.0000278950
0.0000281334
0.0000424385
0.0000457764
0.0000379086
0.0000438690
0.0000326633
0.0000414848
0.0000326633
0.0000286102
0.0000455379
0.0000407696
0.0000424385
0.0000369549
0.0000355244
0.0000386238
0.0000309944
0.0000429153
0.0000338554
0.0000429153
0.0000412464
0.0000441074
0.0000352859
0.0000379086
0.0000429153
0.0000345707
0.0000410080
0.0000410080
0.0000452995
0.0000431538
0.0000331402
0.0000455379
0.0000338554
0.0000400543
0.0000417233
0.0000426769
0.0000412464
0.0000438690
0.0000343323
0.0000355244
0.0000429153
0.0000419617
0.0000340939
0.0000398159
0.0000405312
0.0000424385
0.0000324249
0.0000433922
0.0000419617
0.0000391006
0.0000355244
0.0000419617
0.0000438690
0.0000267029
0.0000426769
0.0000391006
0.0000369549
0.0000424385
0.0000360012
0.0000343323
0.0000429153
0.0000369549
0.0000431538
0.0000340939
0.0000450611
0.0000331402
0.0000402927
0.0000433922
0.0000443459
0.0000286102
0.0000443459
0.0000381470
0.0000345707
0.0000426769
0.0000429153
0.0000343323
0.0000321865
0.0000286102
0.0000381470
0.0000452995
0.0000422001
0.0000443459
0.0000436306
0.0000419617
0.0000436306
0.0000288486
0.0000424385
0.0000331402
0.0000441074
0.0000414848
0.0000381470
0.0000293255
0.0000441074
0.0000417233
0.0000326633
0.0000452995
0.0000312328
0.0000433922
0.0000450611
0.0000324249
0.0000436306
0.0000417233
0.0000338554
0.0000431538
0.0000343323
0.0000309944
0.0000441074
0.0000448227
0.0000422001
0.0000429153
0.0000309944
0.0000407696
0.0000441074
0.0000419617
0.0000305176
0.0000424385
0.0000345707
0.0000312328
0.0000507832
0.0000391006
0.0000293255
0.0000431538
0.0000441074
0.0000371933
0.0000348091
0.0000448227
0.0000381470


real    19m44.525s
user    19m38.156s
sys     0m6.172s
