email@example.co.jp : FAIL (information stored)
email@example.museum : FAIL (information stored)
==( 27.78% )===========================_________________________________________________________________________
==( 27.78% )===========================_________________________________________________________________________
email@example.name : FAIL (information stored)
==( 38.89% )======================================______________________________________________________________
1234567890@example.com : FAIL (information stored)
firstname-lastname@example.com : FAIL (information stored)
==( 44.44% )============================================________________________________________________________
==( 44.44% )============================================________________________________________________________
_______@example.com : FAIL (information stored)
"email"@example.com : FAIL (information stored)
==( 55.56% )=======================================================_____________________________________________
==( 55.56% )=======================================================_____________________________________________
"email"@example.com : FAIL (information stored)
email@[123.123.123.123] : FAIL (information stored)
==( 66.67% )==================================================================__________________________________
==( 66.67% )==================================================================__________________________________
email@123.123.123.123 : FAIL (information stored)
firstname+lastname@example.com : FAIL (information stored)
==( 77.78% )=============================================================================_______________________
==( 77.78% )=============================================================================_______________________
email@subdomain.example.com : FAIL (information stored)
firstname.lastname@example.com : FAIL (information stored)
==( 88.89% )========================================================================================____________
email@example.com : FAIL (information stored)
==( 88.89% )========================================================================================____________
==( 94.44% )==============================================================================================______
bbb@gmaill.com : FAIL (information stored)
==( 100.0% )====================================================================================================
marek@kiraly.sk : OK
==( 100.0% )====================================================================================================
aaa@gmail.com : FAIL (information stored)
==( 100.0% )====================================================================================================
email@example-one.com : FAIL (information stored)
==( 100.0% )====================================================================================================



======================

ALL EMAILS VERIFIED AND DUPLICITIES REMOVED
VALID EMAILS: 1 (5.88%) --> ./out/valids.txt
INVALID EMAILS: 16 (94.12%) --> ./out/errors.txt

======================
